<?xml version="1.0" encoding="UTF-8" standalone="no"?>
<!-- Created with Inkscape (http://www.inkscape.org/) -->

<svg
   xmlns:dc="http://purl.org/dc/elements/1.1/"
   xmlns:cc="http://creativecommons.org/ns#"
   xmlns:rdf="http://www.w3.org/1999/02/22-rdf-syntax-ns#"
   xmlns:svg="http://www.w3.org/2000/svg"
   xmlns="http://www.w3.org/2000/svg"
   xmlns:xlink="http://www.w3.org/1999/xlink"
   xmlns:sodipodi="http://sodipodi.sourceforge.net/DTD/sodipodi-0.dtd"
   xmlns:inkscape="http://www.inkscape.org/namespaces/inkscape"
   width="332.72763mm"
   height="269.73688mm"
   viewBox="0 0 332.72763 269.73688"
   version="1.1"
   id="svg846"
   sodipodi:docname="rdyflow.svg"
   inkscape:version="0.92.4 (unknown)">
  <defs
     id="defs840">
    <marker
       inkscape:stockid="Arrow1Lend"
       orient="auto"
       refY="0"
       refX="0"
       id="marker1935"
       style="overflow:visible"
       inkscape:isstock="true">
      <path
         id="path1933"
         d="M 0,0 5,-5 -12.5,0 5,5 Z"
         style="fill:#000000;fill-opacity:1;fill-rule:evenodd;stroke:#000000;stroke-width:1.00000003pt;stroke-opacity:1"
         transform="matrix(-0.8,0,0,-0.8,-10,0)"
         inkscape:connector-curvature="0" />
    </marker>
    <marker
       inkscape:stockid="Arrow1Lend"
       orient="auto"
       refY="0"
       refX="0"
       id="marker1929"
       style="overflow:visible"
       inkscape:isstock="true">
      <path
         id="path1927"
         d="M 0,0 5,-5 -12.5,0 5,5 Z"
         style="fill:#000000;fill-opacity:1;fill-rule:evenodd;stroke:#000000;stroke-width:1.00000003pt;stroke-opacity:1"
         transform="matrix(-0.8,0,0,-0.8,-10,0)"
         inkscape:connector-curvature="0" />
    </marker>
    <marker
       inkscape:stockid="Arrow1Lend"
       orient="auto"
       refY="0"
       refX="0"
       id="marker1923"
       style="overflow:visible"
       inkscape:isstock="true">
      <path
         id="path1921"
         d="M 0,0 5,-5 -12.5,0 5,5 Z"
         style="fill:#000000;fill-opacity:1;fill-rule:evenodd;stroke:#000000;stroke-width:1.00000003pt;stroke-opacity:1"
         transform="matrix(-0.8,0,0,-0.8,-10,0)"
         inkscape:connector-curvature="0" />
    </marker>
    <marker
       inkscape:stockid="Arrow1Lend"
       orient="auto"
       refY="0"
       refX="0"
       id="marker1917"
       style="overflow:visible"
       inkscape:isstock="true">
      <path
         id="path1915"
         d="M 0,0 5,-5 -12.5,0 5,5 Z"
         style="fill:#000000;fill-opacity:1;fill-rule:evenodd;stroke:#000000;stroke-width:1.00000003pt;stroke-opacity:1"
         transform="matrix(-0.8,0,0,-0.8,-10,0)"
         inkscape:connector-curvature="0" />
    </marker>
    <marker
       inkscape:stockid="Arrow1Lend"
       orient="auto"
       refY="0"
       refX="0"
       id="marker1911"
       style="overflow:visible"
       inkscape:isstock="true">
      <path
         id="path1909"
         d="M 0,0 5,-5 -12.5,0 5,5 Z"
         style="fill:#000000;fill-opacity:1;fill-rule:evenodd;stroke:#000000;stroke-width:1.00000003pt;stroke-opacity:1"
         transform="matrix(-0.8,0,0,-0.8,-10,0)"
         inkscape:connector-curvature="0" />
    </marker>
    <marker
       inkscape:stockid="Arrow1Lend"
       orient="auto"
       refY="0"
       refX="0"
       id="Arrow1Lend"
       style="overflow:visible"
       inkscape:isstock="true">
      <path
         id="path1644"
         d="M 0,0 5,-5 -12.5,0 5,5 Z"
         style="fill:#000000;fill-opacity:1;fill-rule:evenodd;stroke:#000000;stroke-width:1.00000003pt;stroke-opacity:1"
         transform="matrix(-0.8,0,0,-0.8,-10,0)"
         inkscape:connector-curvature="0" />
    </marker>
    <marker
       inkscape:stockid="Arrow2Lend"
       orient="auto"
       refY="0"
       refX="0"
       id="Arrow2Lend"
       style="overflow:visible"
       inkscape:isstock="true">
      <path
         id="path1662"
         style="fill:#000000;fill-opacity:1;fill-rule:evenodd;stroke:#000000;stroke-width:0.625;stroke-linejoin:round;stroke-opacity:1"
         d="M 8.7185878,4.0337352 -2.2072895,0.01601326 8.7185884,-4.0017078 c -1.7454984,2.3720609 -1.7354408,5.6174519 -6e-7,8.035443 z"
         transform="matrix(-1.1,0,0,-1.1,-1.1,0)"
         inkscape:connector-curvature="0" />
    </marker>
    <marker
       inkscape:stockid="Arrow1Lend"
       orient="auto"
       refY="0"
       refX="0"
       id="marker1935-3"
       style="overflow:visible"
       inkscape:isstock="true">
      <path
         id="path1933-6"
         d="M 0,0 5,-5 -12.5,0 5,5 Z"
         style="fill:#000000;fill-opacity:1;fill-rule:evenodd;stroke:#000000;stroke-width:1.00000003pt;stroke-opacity:1"
         transform="matrix(-0.8,0,0,-0.8,-10,0)"
         inkscape:connector-curvature="0" />
    </marker>
    <marker
       inkscape:stockid="Arrow1Lend"
       orient="auto"
       refY="0"
       refX="0"
       id="marker1935-3-6"
       style="overflow:visible"
       inkscape:isstock="true">
      <path
         id="path1933-6-2"
         d="M 0,0 5,-5 -12.5,0 5,5 Z"
         style="fill:#000000;fill-opacity:1;fill-rule:evenodd;stroke:#000000;stroke-width:1.00000003pt;stroke-opacity:1"
         transform="matrix(-0.8,0,0,-0.8,-10,0)"
         inkscape:connector-curvature="0" />
    </marker>
  </defs>
  <sodipodi:namedview
     id="base"
     pagecolor="#ffffff"
     bordercolor="#666666"
     borderopacity="1.0"
     inkscape:pageopacity="0.0"
     inkscape:pageshadow="2"
     inkscape:zoom="0.98994949"
     inkscape:cx="636.91609"
     inkscape:cy="551.64634"
     inkscape:document-units="mm"
     inkscape:current-layer="layer1"
     showgrid="false"
     inkscape:window-width="1855"
     inkscape:window-height="1056"
     inkscape:window-x="65"
     inkscape:window-y="24"
     inkscape:window-maximized="1"
     fit-margin-top="5"
     fit-margin-left="5"
     fit-margin-bottom="5"
     fit-margin-right="5" />
  <metadata
     id="metadata843">
    <rdf:RDF>
      <cc:Work
         rdf:about="">
        <dc:format>image/svg+xml</dc:format>
        <dc:type
           rdf:resource="http://purl.org/dc/dcmitype/StillImage" />
        <dc:title />
      </cc:Work>
    </rdf:RDF>
  </metadata>
  <g
     inkscape:label="Layer 1"
     inkscape:groupmode="layer"
     id="layer1"
     transform="translate(91.892312,-10.858752)">
    <image
       y="26.342041"
       x="41.177574"
       id="image2137"
       xlink:href="data:image/png;base64,iVBORw0KGgoAAAANSUhEUgAABNEAAAH3CAIAAAAaA16lAAAAA3NCSVQICAjb4U/gAAAAEHRFWHRT b2Z0d2FyZQBTaHV0dGVyY4LQCQAAIABJREFUeNrs3Xt8U/X9P/B30yZtLm3SNG1TUtKrLbQFUpSg UEEqQkGsFp0Xpk63id9t7CJzUzbHNscmuqnsO3Q/0ambiOIXQZlgrVBA26oBabi00Ps1bdomae5p kib9/XFKCW3BtKY3+no++IMmn5ycvM9Jm1c+n/P5BGUuuYMAxoXb6WCHclEHAAAAAIDpg4USAAAA AAAAADInAAAAAAAAIHMCAAAAAAAAIHMCAAAAAAAAMicAAAAAAAAgcwIAAAAAAAAgcwIAAAAAAAAy JwAAAAAAACBzAgAAAAAAACBzAgAAAAAAADInAAAAAAAAIHMCAAAAAAAAIHMCAAAAAAAAMicAAAAA AAAgcwIAAAAAAAAgcwIAAAAAAMCECBmLjV4f3p0v1iZz7YJgz2lr+DtdsjP2CNQaAAAAAAAAmTMA gfMpec3Aj3MFlrmC85saZiF2AgAAAFwFUhLiUYQpqq6pFcd08hfk6jhMvq8i8Jnz9igtEX1pFr3d JbN5QtZLm66PMK6L0WxqROaEQBMt2favBxSXudPlsls7tbWN9arSsuLyFoN7arwm8TWL7lqzSJk2 Ux7D4wy5t3nv0w++3TJ1j4vvQSlUtViHa6N87OXncthEuj2/3LS98Wo6X0PkKx7ecn+WuPPsjhff 2K/pxTsYAK6+T+qIwVO3ShO1tykJ8RP41JOzIFPopPLzVQQsc14f3p0UZp/DM8/hmamPdmgTOt2h RPR2l+z6CGNSmH10m/1JXEMGz/KTurlXaPNQbPNdEu2gG/fopG92yF9KOV1pD3+pPQl/G6YhDocn jk9Wxicrc5Zv6K4v3Llz+9HhQ86ocDNuWqqINKs+KqsNWJqNyln/480r5ZzpcVDWt5Zvf/GN/Y2O afMViXLjw0o5hyhJuWF9VcnvPzNM0vMQAAAAIJACkDmTwmyPzWhI5g6kyiCivsGN+sb8lTzZMMtL QQM/drk5OLrTiU59pGrQFw8cnlAqm5kaL+QQUWRy3k83K3PefeqFw5X2QDwhL3v9T+9UUJX1SFmt MTBvxoyHf75lZRwRka295JNDhRUtBmOvi3ktmWu3fT9rCp7TOtVH6uaLP7I5/Aj5NemKeB4RceKz Nz4t5Gx6Zo9mepykbC7nwiHk8HkCIsNkPA8BAAAAJlnmXBetWRejIaIGB+8LS+QZW/gDMc0ZfPsj 0qZdXTKbJ2RdtIaIGpy8sX4l5xwCTx+m4Z2uXNr9r7xZPFw/D0eUlHv3vetXJouJxNn3Pvc79i82 FwagRyhGKg7sS4heumFFHBFRd/nWTS8Xdg16OvvUPC4thTt3Dz0u4mtufvKJe5WRRPzk9Q8vKt5S ZpgOZ2nX8TePLN2yLI7jat+/s6w5INsM+HkIAAAAMKky50Dg/FAfu6tTZvOGENFevSyDX3NDhPGG iIvfuu/qlA27hX+lqnd1yVK59ltEnaVm8YttKSzquy9akxfZyWb1lVuFrCAv0/JncfXz+OZHa+f2 Xljf5V5Ja15k1w9q5/m7u319a6I6bhd3SNguQy/7gCHmA32cl4IelTbNFxgfvbCd28Xa78W2PFIz V98bSkQZXMvWpMr1NfO07jCcLlMy9RgbCnc8U1K69rknVmXwSZB255ZHW364veJbDrLlxEilAd1P qVKZwSEid+V7uwcHzquOoebwUy/G/efppVIiTuYipaiscFr00ZlV2zev3RnFsekDdXVxwM9DAAAA gIAbfcdgUpiNCZxbmq95VZvABE4i+tISuaX5mjO2cGtvMBGdsYVfadLaIPpuTGtEsHtbW/IeXRwR /UDanB+l/ZdW/vO6zBJTZBbPwjTcb4iNDXXdENHfHRIc5F0t7vq4O2agbzOI+oKDvMy/oOHG8j4k bbk/RrOrS/bjuqzXtPKCKO3/xDUSUak5UhbqTAqzMc2WCnV9FHR9eP9H4EVCQ0MPH4FzqrNW7P31 C6XM4FvpsvvXZ37bHn5xtDCwI13lSUx20Kmr9dPiu4CKUlU3E5ukGdHT6VQ06gM4nVXAz0MAAACA gBv9J++NMxqI6EN97JeWyEF3fWmJHHrj5eh6Q//amkJBQUQkYLlXR3a+3SU7apYQUYc7TGE2Z/As RNTo5J+2ht8q7vzcLCGi6wXdguDeT7pjBrbzQcbXA/9XWyOeaprl+yyiENcdYu1rHfIjJgkRtbu4 PJbnF7L6D/TSCnt4tztkoaC7oYcfw3YmhTk+NMQujjAc6I4looUC46dGCU6Uq+Gzvnr3CyVZz+UI iSR5Bco3K77VeE6pLCqwu8dhs4mIyGGwTZMDYm7uIookIjaHj9NzspyHAAAAAJMlc14f3p3EtTc4 eJcbNOu/GgefCZxEJA/rYbP6ztrCh235X0Psb+W1iaG2Rid/lbjrc7PY6GFfzMB1s/suzCFk8wQP emxKmD2ERed8tlzpEAQFBaVzrW0u7heWSGWE8V1d/OJw/SlbxCeGmILU08JgtzDEHRfqLDXjgqmr g0P1Xllzzio5ESd7aU502f5Lh7AKEhfkr1mUc81MeYxQQHZDp1atOrZrX1mt76WU1+Q99+gieYxE ymfOvfSN/3p148C91e/eu+mwdmQbvOfdrct9hkcmb/h/r27o/7+7+NkfP63y67Uxz5WbOVMuEnI4 bmu3rraiorjoUGGF3uWbbJWP7H1CKSB37d6//vDthiGb4eY89qctOULqLv31z95UDbmGlJN5/3+e WirlUOXrT/74wLfsj+WJ+6/yNhn8GlibtPG13+RHEtlKf/Hgm+qh92c+tPfpxWIiwyd/Xbujeuj9 4msW5K1clJs5UyoScshu7WxRq8v27FNVGgetWRKR/8fnN2aR4ci2e7dXuChEnLnooYKlyrQ4KZ+s 3e2V6rI9u4+puq78qAjFrWvXr8lOjeGRy1T84pNbVb1EpFj/t20rhUSmws2Pb6247DPKlcsfunWR Ikki5pO1s72yvGzXvsPqrlGehwAAAGPE0+vW1p0x69uJKCIqTpoyJziEjbJMKnxemIDHDw5mccNC icjR4/R4vFa7zWbvmQKZMznMTkRfWCIHhtQGZm+CvETk9g4/4vdLS2SHk7NG3Pm+XjqPb/plQ6bv vXVO/hXmEAq67My5QURUahKviuyMDHblCLsPGmLa3WGNTt7C8G5RiLvRwdW4uDhfrxKaspLWVevi iWhmTiZ3/9ELq3TwkvIffXhDThzHNxHFJ+fGJ+cuW/DC71+6uJQiX5qRFCf45jzl9waNLc02kn6b jj52VO6jP964TO6zV2xBZJwiJ06Rs/Sh8v1PvVA4MFWv6+xxtU2Zw2en5igz3m6oHLzb2flKIRFR ZHZ+1m6VatAqJiGKZQukHCJqLlF/6wHA0WkKZt2mzoqSxjE+7mxp3oYfbxx8ONJz49NzV+QVbn/5 hVKta2hGTZwpZWtTH/7xxpUXayuIlCuXyZWLl+5/9m8vqM3DJNtEqZhaMh7btDnnwvgIDpvj8msp TnHiTCnPrty4fn22ZGBXBTFy5Uq5Mid7++ZtexpHeB4CAACMmc6m83pNnbe3/4oRY0ezWd8eJUuJ SZg1Fk/XcKrE2+uWpszhizAC0S/hfJ5ELGKxLslHTPIU8Ller1dnMFps4zRL5SgT4xy+mYjOXKZD ctTanWFEJA9z1Dn7P4Ozgi5mxT4K+qg79rvRrb19QVUOQbVjBJ+46hz83j6azbcMbHkW19rX11ft 4BPRGXuE2ROyUtyZFGb/whJJRKXmyBsiuvnBnjILOjmvJlp1jX1dPI+InZo2k45WExGxkzY886u7 4tlE5OqsKi4pr9Q4XHypImdRXpqQIrM2/vrO2sd3VzK/UdU77/3BfwXsiNyNv1mfRkTNu558ef9A N53bpB3pBrvKfv1gGYcXlbfxTxuz2US6/X/6264La4dYv7kDMCrvsU1PLhQSEdnaVSVlJRV6A7Gl iWm5y5QZkWxx9p3bnub9YtPe/qezVxVXu3Oy2RSTmSOjyksXKRFkKxT9WYenWJzMUVVcmsSScxQ8 IqLWipJvu7pJVN6jqzKIiOwlOz+uHNuDLs1/atPGLB6RW3u2bE9ReaXG7CKuNC07v2CpMiYub+Pj HPfTT6uGBEhR+rrHluctFFobyveXnq3sJoEsOSdHqYhhEycu/4mfND8+3CovfEnGreufzPH9c2jS +jlDUsyCjU/nK5LY1tazhUfLKzt7OTHJuSsWKWLYxE/f8Fi++vG9tf6fhwAAk0Pd10c8ve6o+BRR rBydYFcHfWttR2Nln9dLRDyhRJY+n4g0VSftJl1X03mjtlmaMidCEhfYJ7WbdETUeLpELEuJSZg1 qc4lT6+78VRJj83kZ3tRrHxM+4RZLJY0OoqJl06n22K3OV3unh4nEYWFhYZy2OE8fmgoO0YiDhfw tV16r9c76TLn9eHd+WJtFs9MFHR/dMvOrplD5wdi2iRz7YJgz2lr+DtdssvOIXSprt7Qk5bwuyWa hh5upzs0J8KwKLzb0HvxeBR1R383unVVZOcLbckj2u1uD2e/Xrouuq27l13tECSF2h6ObS0yRjN9 mF4K+sIceYe4o9wqtHtDiKjELL5b0hYS1PdSWyJ+s1xVoVOjI5ITkThGIqBqKxG5tSUVulyOuWT3 7h1HWwbmsy08cKjksc1bcoQUv/Qh5f5flzKdfr1Wo95Kbmt/GnNou/SDE8XINkhE5LLrL1zG6bYa 9Vq/562Vrnh440IhEbkajj21ZadqYE9Ky/a8d/iuJx7fkM3jJK3a/PDZB3dUu4iIHKqSKld2Fofi FIoo0vh2V3IVi9M5RFabXcDnCTIXKNgVKt/ZbhKzlZFERM2q46Nd5yNEIJKkZiryC1blJvGITOqd L20tNY/pEZff+vCGLB6RvXLn336xr2UgRdc2VpccUa1/+lfr0oS5D+fvL9+pHjS1T2RW3kKT6vW/ PH2g4cJB/GzPe4X5T2zamM0jTvJDdysKX1QPngBZtGDDPUKOrblw9949qhaDm1wuu9XP7xD5coVM V/LKy1uLBk6bsv2fqDY+86v8eKL4pesy9z+t7vX3PAQAmDQfx91Ou7bujLbujChWLpalcAVClGUK BRhfDqtJW3eGiX9EFMYXxiTM4oTxiChpXo7NqNNUnXQ77S2VX/GEEmnKnLE41gZNnUXXLkufP3k6 PEd0vIjI2NFMRExWH4vAOSNWEsrheL3eTn23zX7JsLWeHmdPj9NktvJ53JioSG5Y6IxYSVuHbqxj 58gy5/Xh3U/Jay781JcpsD0jOD9oWtpL29BcgWXukDZX8IIm5SczGp9NOuf0Bh8wxOzslK0Wdw7c a/OGfG6Oui7cWGoacffjGx0zDW72w7EtkhBXt4dzwBCzR3/xC5hSS1SeWHfM1D8hR5uL2+oKC2P1 NY39yqIwnqy2C288PldAZCUicqh3bF47TFtzyXuHanPuTCV2hjKZU1rh8vsXcqA3eBnstHV3p3OI yNX85os+gbM/vbbs2b5T8b/rc/gkXZaf+97fmPVIrOrySleWgkOpynTxAZ+JlNjpuVk8Irt6X5n8 /uXyyKycNFJV+IS37DQpEZFOpWrxdw852ZvffXXzMHe4teWH3ty9v7DGMbbHm535UEEyh8hVvf9p n8B5YS8adrx+LHfrcmnMgvzMd9XqQSNg7erX//bUgUuH3bq1+195P/d/H1BwSKBcquSpiwflSY5Q TM27Nj2zo7F35LtrKtn+zFODQri9+s19Z/N+msUhnkKZTOpqvIsBYGqJkqVo68+wgtlej9vY0Wzs aA7jC6NkKSKpfBLubWnRPiJavKIAAWao9rozBk0dEbGC2eHiWLvZ0GMzNZ4uEcXKoxNmccJ4fJEk beEKfWtdZ9N5u0lXf/KIWJYSlzIngPuQPH9ZW9VJ5nnDo+Jk6fMnvMNTU3Wyx2ZiBbNTrl3GxO8r sxl1jadLzPp22RjsDIvFSpBJWSyW0+lu6+y6QpK02R1NPc4ZMdGhoZwEmbRJox3T2DmyzHl7lJaI vjSL3u6S2Twh66VN10cY18VoNjVGjKjNgB/UKAa/bTycP7ek+d5yoNtngpW+vjSu9WNDbK/PKi9v dsjf7Bj+19ZP6uZefCgFfWCI+8AwfEd/uVW4pkLpe8sv6ucQXH1GlPM02mYXpXJIECMVU0UAxisG doNpi3IiiYhcFYX7hx3saizfU2LKWSkkTnKeMqKwyExEZKwobiRFGnHSFApe2UBk4mQqlHwiV1Xx J6qMFcvlMUKlMokqBuYZilIq5URE3RUlNQHIgtLMBXcVEO0b29jJyVykjCQit/qTsuGrXXNWbVue x+dlZMeRelCW1paohrnOk7rUhdX3KrLYxElWplHxkOmMtEd2vjmawElEenX1ML2+hpoWLWXJfTvn AQCmDpFUrq0/4/W4E+fmmPXtRm1zj82kqT7ZXn9GFCuPkqX48zF93Og7NBO7A5MqwPiq+/oIk4QH hrZ6et16TV1X0/lBV3JGxaeIpPLOpvMGTZ1BU2c36lKuXRao3eAKhCnXLmNirUXfXq0qkqXND/g4 3hHlcGNHMyuYnTgvx88zmemeHbgONrCBc0asZGjg5PO4wnBBKIfNYrEcPU6DycyMs/V6vW2dXTNi okND2WPd2zmyzDmHbyGiHdqETncoEb3dJbs+wjiHZ/4oc/DcmoPaJIUF5vrU68KNMk7Px4bptJwf BDaE8C/MCGVz+PHZ3e1yE3GI2OwArYIYyA3K02Yy3f215fWXeS29lep618psDrFTM2dyipieVb2q pJnS5MRJz0kLKe7v3AvJyMkSELkqjqvsDdpy3V0rJVJFdio11PZ/ZEjPSSQiMqhVI7n8sn7Xs/vV l8ycyxaIpArFgtyF8tSFy59cuCh/77Zfv90wRjlKnjlTQETEzrhn03+G/86aLeYTEYlFEX5v1Vzb aKIsCRFPLouiwdMptRcfaHAF9mW4TP314YdgNU4AmHKCQ9iiWDkTS+JS5sSlzOnWNhs0dT02E5NJ wqPiRLHyCYwNk8ekCjCD/xb19F8FZNG184WSCElccAg7JmGWKFaurTtj0bf7XslpM+osuvZBDwyg qPiUcEkccwUpM45Xlj5//L+8YM5kIpKlz58MI8bFwohQDmdo4JRGX1xZjRsWKguL1nR0DYmdHLEw Qtc9VhfqBGDW2T66sETJlRsFwtoo7TGzpNuDz10wStKk/qH/BqNuaM4RRCcpstMVaTPl0RIxn8vh 86TfbunIgG/wkt8sMua1uLVdlx2B4+rUaonkRAJRlICIGUmrVR+vJXnqJWM1k3MVQiK3uuSslaiy tMKwcqk4XqGU7a3VEBEJMhUZHCKyq0rqRxCoXKba8ksvCiUiouKiwh2JN29++l4ln5ex9hdPNv7u qbG5qlMc03+4BTHfMMurwTiC78UMGjORhIgEIh7RoMzpMLjwPgMAGPQHK4UZVcsMs4yUyiOlcofV ZNDUGTuaLfp2i76dHcqb5vMMTbYAM4jX00tEYXxhj83ke7kmJ4wnz1xoM+q0dWeYu1ghbCYDM42Z BwYcJ4yXNC+nW9vMXF9ad/JITMKsKFnKuBXErGtvqz5JRDOGdLTWfX2EiBLn5TAnM3OBLiuEnTQv Z+z2JywsVBgh8Hq9nXqDb3elMFxARFa7o9to7vN6xWKRgMcVCyPaevqnD2EeIpNGCyMEVoeDyaIT nDnP2MLn8C2PSJt2dclsnpB10RoiOmuP2NQ4e6DNM4nnhrZpCNBVkb9pmo1f3PBtImdGInMqupvP +g6kDJEqlq+/Z3lOmjBA32cEfIPDBVo281fZ7brCUhxue38C4vj0rGoqVK13psaTODs7laprieia bGUkkau+WO0gIqpWqbqX5kXG5Sqidmn0RCEKZTqHiGxnSyoC85fD2nj46VfS392YLSBeTsEieWlh 8xiUiNP/uaV5x8/+tCuAo6Vc/TGawwnBmwoA4BtxBUImfnRrmyMvXMbJFQhl6fOlKXOM2ma9pm6a zzM02QLM5aRcu2wg5jGXazLjbPkiSeK8nJZzx23dnd5edxCLFZeqiJTKKz77YEz3J1Iqj5DEaapO WvTt2rozZl37GE1cNIjDatJUn2S+T4kccmUyK4RtN+kaT5UkzsuhCxfo8oRjO+NRTFQkERnNVpf7 ki/7mdlrDQaj2+Mhom6jWcDjhnLYl36ucRvNVrEoIiYqslkzJpPfj+wD04d66Ry+5YYI4w0RFzte d3XKRtoGYGLIFLlJzP9aSioGLiOMyNnw+OZlcRwisjWrSo4Xq+trG7Rao91K6U/+6xd5I+6ZDPgG Lxd83ERsIjbnCrmWzeNcaO3T/dZSrNati5dQTJpSRrUaSs1RSIlc1ar+iYjc9cUV9rwcXmqOQnrg sJadnJPJI2Z5z8AN3rGWqyspW0lEsvRUdmHzGAwLstqZEgmlIqLAZU4Ov/83tcvVi3cVAIA/xLKU tuqTBk3doA/owSHsqPiUqPgUs66d6fNkekTDo+LkmQunSXEmYYD5xpg3cLmmsaOZuYyzs+k8073J F0XPSMset5GuwSFseeZCs659IAlHJ8waozVC+//699gbT5d4e92iWPmwMyTJMxcyh6nh1OdE5LSZ w/jC6XM+ByBzfmmJ3NJ8ze1R2qRQuyDEc8YWvqtz8Doo/rQBmJCzXVmwPJX5ZXG2tPjCeiTSFeuZ fKgt2fHr7ce/ffIJ+AYv58K6L2xpdNSQEZ4X0lFMFDMHl9Wo9x1LXFui1q5ZLiV5jiJql4aXq5AQ UW1pxYVpbHvVpWetOUpBYrZSdHh/dLaCmYmntCqQF1667S4XEYeIwxbwicbgCgJtg46WyYmEqbIo qtAHarNSGXNdhFur0eF9BQDgZ1Bhxl46rKah3VCuHrvbaXf3XLzMwff/V7epGGCCQ9hxKXOiZCnM FZXaujPM7RN1XSURRUji+CIJk4S7ms5bdO0BnLhokJaKr7y97jC+8HJzBQeHsBPn5TSoP3fazEQU yosY6KYeO536bllstChCYLM7fLs6HT1OblioOFLUbTL3eb2Rwggicrou+XjKYbNFEQJmI5MiczKR 8ktL5LdvAzDOBJn3blzG/JHTFb43sEaINHdFOoeIuktfCEw+DPgGLx+oqlsMJBcTpWYnCw7oh02D qYpkDhGRu7bi0pVCaspV3cvzIyk1O12sjlDGE1F9cfnFVOY6e1xtU+bwk3MUEZWyTCkRuaqKKwI6 x2yMVMp0wrpMhm+eX6C3/9cjmydgE7n9LFGDluRSotRlCmnR4QANFpFmZDInUrt6rNd6AQC4ioik cqZnbOCTuqfXbexoZmayZW5hBbMjJHHhUXHjMKVQadG+y81Su/+t7YNuiYqVjdECKpMzwPiDuaKS mTiXiBLn5kyeBTMnhaAh/xlLPT1Oi9UWLuDHSCJ9Z6A1WazcsFABnysYmEeTyGC6OI8Gi8WKkUSy WCyT2XqFizkjhRFDJ1w0GM3dJr+m5GDhfIBpETivyXvuiaVMj5+hZPeOixclRshjiIjI2DJMPuTx xN/wK33o3d9ygyPgqi5TdRMRcTKX5w07ep2nuCtHQkTkqi9WDfqNUF+sNhERJy0tR5mdSkQN5SVd Pvfbq4rPuonYGdkKRVocEbmqy1WB7IoMUdy6tL/bubqq8pszpKmWWamXM1OROMzW5GnDzRJUU1rS SUTESVv+UCZ3pHs47KBlTuby/HgiImo9XqKZJCc4G+9xAJj8mPldjB3NnguTrBq1zUznJys4RBQr n5mxcPbiW2Xp8zGH7YQHGP8N5MyJDZw2o67u6yPMJEzRCbPGrpOTiGZmLmQFs3tsJk3VyWEbMNfc Om3mUF5EKC/CaTM3nirxjP3cwrpuk9PpDuVwmBVT+itjd2i79I4eJ5NCHT3OgUlr6cLyKsxst4Yr psduk9lgNI8ucFJA5q0FmMw4oqTcgjvXr0lnlhVxNXz81Ha1T5egw9BNxCeKSc/gHdb6DuQRZW54 6mHl8JdK2q025kLBqIzEkP3MciO8CIHbbHWPboOj4q5+87363EeTOZzk9Y+trd28V+37dGxp/sb7 c/lERNoj+wsHx8XeypIq6zKlgJ++bgUzsFZ9aTegQ6Wqci3MEmSuuotPRFSrGhh5++0jUoRizfrN K5k/TqaSfcf92LK5Ut1MWXIiSd49i/Zs8V1vM0Lx3fWb1yYPV9qGXbvP5v00S0CSvMfW1255ac+l K2cKEhet33BPru39H//+syGTGMnXrb9ZteVwre/fiOgFT25gvrywl7xX1jzBZ/cVzkO89QFg8v1F DuOFR8VZ9O1GbXNUfH/+vHAXX5oyZ5z77obtt2R6OPMf2DBuuzEzcyGz9KWm6uSwXZ2+AYaImAAz Sbo6JwNPr5uZQ4iIBmbTHeszOXFeTuOpEmNHMyuEPXRENDMWOowv9L0Et7niq7Ge9olZ+CRBJmVi 50Bvp83usNmHGZk1EDiZB37j4pxMwmR6O0cUOJE54ar5OybNf/Qh5eBgI5TKZmYkXZw51nD2/aee Lby0S62lhJlNh5+94Ym1rjeOVXbaKVKqUC5fV6BMpebaTnlqzNDn662saKeFciJh3oZf0QFVLS85 b2W2oGTbgzuqR7XBUdIW7XhBufnJbB4nadW2/5dZfKRMVa23utliWWbuCqUihk1EroZDW3dWD12/ w1VxXGVT5vIl0hgialepBo88taqPV7qyFJESKRFRc7Fq5NdDcmbmPXxPhm/B2WyxaGZqVrK8fyIl t/bIGy+o/Rqh2nykUFWwXsknQfbDr/0tc/+RilojiRPTcnKUihi2obpem5YsHfIow9E3XsjevDlH SJFZG57fmltSVlzeorWTQDRTsXhBbpaEQ0S0PC/xsx2Ngx8ryLr35X8qiw+UqjR6KwnlmYr8ZdnM nhu+2rl9bNZ3GYkrnYdYsQUAJiFRrNyib9dr6qLiU1w9dqaHkxPG77GZpm2OmrQBZkow69o11Se9 vW5WMDsmYRbzXcbfB3vQAAAgAElEQVQ4YGZdbqn8yqCpC+MLB838xAphM8eLOZ+Z4zs+O+b1eps0 Wma9zQSZtFPfPWzaJCI+jxsTFclisQat5+lP7PT9DzInTCsSxbIrjujori98793tRQ1DL3qs3L2z UPmLvBgSZ63a8vyqi4mrofTpF3drb/3TyyuH+bZMe+S/xQU/yY0kikzOuz+5/9ZsZQa7Wj2qDY6W vvDZZ2jDjzfmxHH48tw18txBievsx08/e2n/5wB3VclZd+5CNhFRq7p46DBR49niarcii01E1HBc 1TWa46JcuVx5uTtdJtV7O7buq/Z3XiLj8a0vZG57YrGcQ4Ik5bqkgQ3baz9546k37Ov/9Yvhlj81 F7/4jMv24ydXygUkzMhZlTHob3R31a7tO4YGTqL2wo+0yjXZefcn511aOO1X7z714nHtJDjvr3Qe oqsTACafCEkcO5TndtrNunZmlqAIyQxpyhwmR03b2DlpA4wv5sANOwXU5TisJuaBY7E/rh47M4MR TdDcRRGSuBlp89uqT7ZVnwwOYfsOCB/0dUBwCHtMx/oOjZ1tnV3S6ChuWKg0OsrpclmsdqfbzYyn DQsLDWWzwwW8UA6HiBw9Tm2X3s/AObq0icwJVzuX3dCpa26sLlGpilUNhst9BLdXbP3lX9T359+l TJZH8shl0jbWqz75eNfRBgMRR3VWu2yxdJhHqbduekn78G25WXFSPhlaW9SqQ7v2Ha91E7lHtcFR c2sLX9ys+mjRXSsXKDOT5TE8Drmt3brm6uriokP71drL93c5VKVVroVZHHLXHj1eO0wDc8mRqvVZ WQKi5vKKQI0jddl0Wk2LWnW88Eh5pXFka40Y1G/+8PGKh+5empOZLI1kk03XXF2xf9/+/RVmoih1 gzs3a9hPKvqSHX+6t2hB/ooFOZnJ8hihgOwGo6m5oVqlUhWXVmuHPzcctR+9vP3IgofuXp6TNVPK Z7tspubqs8VFhXtU2snSi3iF8xAAYFKKkqVo688YO5qZzBkeFcfMkTPNY+ekDTADwiVxBk2d75qc V2js6XUzU8gyDwz4zuhb6zqbzzPdmxN4AXCkVN5jMxk0dZrqk+ywnMmzqKzX623r6AoX8CSRolAO J1TMGbaNrttosY7TBNFBmUvuwK8/GB9up4MdykUdYJL/3c//4/Mbs4iofvv/PLOnCwUBABgsJSG+ rql1dI/19LrPlx1g/s8KZs9efOvA7b6DSEcaO1MS4gPy0gJ7PedIq9Red8agqWOFsBPnjiDAVHz2 ARH585H+CgfOn2PK7B4RsULYMQmzmEmhhu7AQCAkIrEsZdgFYEZxOjHPkjx/GbMOJ/OFhSx9/rf5 huJbFoShqTrJjItOmb/Mn75WZqZf35N/LPZqAJ/HFfB5wSwWNyyUiBw9To/Xa7XZLzfmdox+S6Cf EwAAAADGSXAIWxQrZ2YP8u2e8u3tnLYXK8alzPH2uo0dzY2nS/wPMEx6H5/dE8XKmcinrTujb62T pc/3na7WZtRpqk66nXYas+l86k8eISJ2KG/QU08gWfr8Hqupx2aqURX5/6hx65u93ARC4wyZEwAA AADGj1iWwmTO8Ki4QXF0oi5WHBAVK0OAuQKuQJg0L8esa9fWnXE77Y2nS3jC/uDXcKqE6X5kh/Kk KXPGbpf8Gdw7zga+LvGzvShWLv2m7t+rDDInAAAAAIwfrkDIE0q8ve6hsWSiLlYcMOwCKggwQyNu hCSus+m8vrWOyZlEZDfpWMHsqPiUmIRZY/GkYXwhEUlT5kyS7s1Jdd4icwIAAAAAXALrfFwFAYa5 pFNbd4bptWai79h1PyLUIXMCAAAAAMC0i8ey9Pmy9PkoBSBzAgD4z7z/94/sRxkAAAAAAoSFEgAA AAAAAAAyJwAAAAAAACBzAgAAAAAAACBzAgAAAAAAADInAAAAAAAAIHMCAAAAAAAA+MBaKQAAAAAw MikJ8SjCVValCdzbyVko7FUABWUuuQO/EWB8uJ0OdigXdQAAAAAAmD4wthYAAAAAAACQOQEAAAAA AACZEwAAAAAAAACZEwAAAAAAAJA5AQAAAAAAAJkTAAAAAAAAAJkTAAAAAAAAkDkBAAAAAAAAmRMA AAAAAAAAmRMAAAAAAADGTwhKAFPRf3e+jCIAAFyVzp6vyZp1DeoAAHDVCMpccgeqAOPD7XSwQ7mo AwAAAADA9IGxtQAAAAAAAIDMCQAAAAAAAMicAAAAAAAAAMicAAAAAAAAMLZGNm/tTJl0VkpSeDi/ t7dX09555nyNy+UmouSE+JSEmeHhfE+vp8vQXVFVZzJbmIesuWVpU2vbmXM1vttJToifPzfjg4OH ez2eNbcsZbGCej2ePm+ftkt/prK61+O58jZvXb7kdGV1S5t2YIN3rMr96NPPent719yyNDg4uK/P y9yurqhqbm2/XPsbF84XRgiIKCQkxOPx9PX1OZ2uj4tLZkhjsmalhoVy7I6es+dqtF16nCgAAAAA AABjmzmzZqXGx8WWnz2vM3QHBwfPnCEVRYR36gxZs1JlcbHqs+d1hm4Om50wc8ZNixZ89sWJbpN5 IKk2tbSZrTbmRzY75JrkhD6vd2DLZcdP6QzdIcHBC+fPmZORVn7m3JW3GRQUlDUr1WS2DGzT1xcn 1J06g+8tl2t/pFRFRCwWa+2tyz85Ump39BBRKIezQJF17IvjRpNFGBEeFsrBWQIAAAAAADA6/o6t FfB56SmJpcfVHV16j8frcrnrGls6dQYBn5eWkliqKmdud/Q4z9c01De1zM1IG3hsZVXd/LmzfbLr NTX1TX1DnqLX42lp74gURvizzfIz55Tz54SE+JuZ/W/P4bCJyGZ3EJHJbOlAJycAAAAAAMBYZ06J WGSzOyxD+hWjoyKtNrvVZve9sb1DJxGLBn7s1BmcLrc8Po6IhBHhkkhRfVPr0KfghoUmy2WdOoM/ 2zRbbedq6hfOnzN0O8rsOatvvnH1zTf6rih9hfaDWKy2Zk173rLFisz0qEghThEAAAAAAIBR87ef MCgoqO9bPM2piqqbFi1o03Zlz5l1+lz1oHsXL1B4vF6X261p7zhX05AQH+fPNjXtnWKRMCMtpbK6 zvd2VfmZQWNrr9x+qPIz587XNsyIjVZmz2lp6zh7vgYnCgAAAAAAwCj428+pMxgFPG64gD/M7Xye gM/zvTEuVqLvNvreYnf0NGu0S66/trfXM3S0aulx9UefHis6WlZRVef1ev3cJhGdOVcTJRbGxUb7 +Sr8b+9w9NQ1tnz59ekk+QycJQAAAAAAAGObOS1WW21jy6IFCok4MigoKDiYlSSXJcllFqutuq5p 0QJFdFRkcDArlMNJT0lMTph5unJw3+D5mnqv13Oqosqf5/Jzm0T01ckzWbNSWSx/X8g3tpdGR6Ul JzANZHEx3SYLzhIAAAAAAIDRGcG8tacqqixW23XzMng8rtvtbtN2MaNkz56vMVutiqxZ4QK+x+Pt 0hsOf/7loKsxiajX4zladsLP5/Jzm0TkcrlPqCuWLrpu4JYbrlMMWivlyu0HMZjM8vi4Nbcs6evr 03ebvj5VgbMEAAAAAABgdIIyl9yBKsD4cDsd7FAu6gAAAAAAMH2wUAIAAAAAAABA5gQAAAAAAIAp JgQlgKlIzneiCAAAAAAAyJwAY4XP5/vfmMvlOhwOtA9Ue5vNhvqj/qg/6oP6o/6oD+qP+qM+/rTH 2FoAAAAAAAAYK8icAAAAAAAAMFZC4qKEqAKMF2G73oQqAAAAAABMo8zJE4SjCjA+7FYLigAAAAAA MK1gbC0AAAAAAAAgcwIAAAAAAAAyJwAAAAAAAAAyJwAAAAAAACBzAgAAAAAAADInAAAAAAAAADIn AAAAAAAAIHMCAAAAAAAAMicAAAAAAAAAMicAAAAAAACMn6D8BzagCjA+7FZLu94UkE3J+U6JRIKS ThSdTof6o/6oP6D+qD+g/qg/+CMEJYApyuFw+N+Yy+WifQDbo/6oP+qP+qD+qD/qg/qj/qiPn+0x thYAAAAAAADGCjInAAAAAAAAIHMCAAAAAAAAMicAAAAAAAAAI8BzCB396F0iWryigM0JRXEBAAAA AACmuQD3c7I5oeZuXWnRPrfLieICAAAAAAAgcwaS8qbVEZESxE4AAAAAAACgsejnXLyiYJxjZ2nR vtKifTiWAAAAAAAAV3nmnJDYqe/Q6Ds0OJYAAAAAAABXf+akCert9N+WJ3/6v3/ZNPT2cAFv58vP /vD+Oy/3wH/85Tc/euiegOzDg3fnf/iffwz69+Dd+X4+PDiYtf2Z3276+SPMjzOk0T/5/n0D94aE hGz+5Y+CgoJwfgMAAAAAwMQKGaPtMrGztGifuVunOnpw8YqCyfOaP/r02KafPzJ/bsbJ05W+t9+y dJGAzz146LNx25Pf/OXvXq934Eedvtv/x3q8noHHpiTKZ6UmDdwljYm6dl5GUFBQX18fTnEAAAAA ALgKM+dkpjp5pkvffevyJb6ZMygoaOWyxeVnzrVpu8ZtT85V1/tmzhEETo/357/dOvBjbHSU772D fgQAAAAAALjaMqfb5WQ6OSMiJcqbVk+q1+zt6/v48Of3f+e2mOiozi49c+P8ubOlMZJX39pDRMkJ 8fetXZ2Znur1er86eea1nXscPYOHB+9+9fn3Pix8/6NPmR9//sj98vi4X/7+r0x8zc9btuaWpaKI 8Nb2jvc+LPzixCn/d+/V5/+w7+PDGWkpyuw5XfruF/7fv2Ojo75755roqMjaxpaXXn9H095BRM// 8VfNre1/f3Xn009smJ2WHBISsvvV55ktBLNYRPTOK38lon+89nbJVycvt0uvPv+Hd/YdTE2S37zk hi9OqLe98tbcjLTv3XP7zBlSnaH7SOnxvQc+9Xi8eJ8AAAAAAMAkypy+gXPxigI2J3ScXxUzje0V BvQWHS29t2DVqtycf+/+kLll9fIl7Z26r09XBgUFPbXx0RPqit9t/UekMGLjj75nszte37XX/2f/ /rqCBdlzXvjnv5ta27JmXbPxRw9a7Y4zldX+Pj4o6N47Vj+7/V9/f3Xng3fn/3rD9602+x+f/6fD 4dj08/Ub/+dBJtkOeObvr65/4DtpKYlPbnmRuSX3xoXfv69g/S//4PV6mbR82V0KClp355rzNfX/ ++rO5tb2cAH/qcce3fPRp79/7iWJOFKRNcvrxehcAAAAAACYTJlzwgMnEX3jNLYWq/2zL76+ZekN u/YecLt7YyTi+XMz3ti1j7kA8tHH/+h29zItS746mZ01y/+nlohFa25Z+pe/v3qupp6IVOVnDn32 5R15ucNmzvdff3Hg/2+/f2DPf4uY/3/2xYmK87VEVHi4JH/lspdef4fpjy06WvrYow9yw0J9+10d PU6X2+31ei1WG3OL0+kiIovVxgzcvfIu6Qzdf3v5TeaBiTNloaGc+sYWq81utdkbWyb1bMBcLhft J6q9zWZDfVB/1B/1Qf1Rf9QH9Uf9UR9/2gc4c06GwOmnA58eW77k+hsXzi8uUa26+UaXy3348y/7 X8WFwElEOoMxIlzg/2aTE2eyWKwffPfOh++9g7mFw+G0aNqHbfzY757z9vWPXDWaLEMb9DhdRGS1 2fvjpcNJROEC/tCxvqPepdr65oGWza1tX508/dvH1p+qqPrixKkjpSqXyz1pj6DD4RjRGwDtA9ge 9Uf9UX/UB/VH/VEf1B/1R338bB/gzDlVAicR1Te1nqupX718yWdfnly+5PqjpSqbvb9GCTNnrFi6 KC0lURQh4PN5vhH0G3k9XiL68wuvtLRpv7Fxs6Z9dHMIjYj/u+Tt6/vLtlfTUhJzFs7/7p1rbs9b tnHzc0zuBQAAAAAAGIUAr8/J5oSOdeAsLdrHXK757R349Ng1yQn33JEXES44cGGJlMz0lBeffqJT p//rS68/8ss/fHDw8LCPtVpt3DCf13hhMczaxuZej2deVvrkOcYj3aXqusbXd+3dtOVFWVxscsJM vEkAAAAAAGDUAtzPOQ7rcH7jtZr+KzuuNhhNa1fffKayurm1f6zpTFlcb2/vp8e+sDt6oiJF8y5z MefpczU511976LMv9d3G5UtuWLxAwfQiGk2WDw4e/u6daxwO59nzNcKI8JU3Laqub/rkSOnQjcxO Sx60PmfXSJbovBiAbY4osWiGNDo6Sny6spoZi5s5K9XpdLV3dPq/S3Gx0StuWlR0pFTfbcqeO9vR 0+NPby0AAAAAAMA4Zc6pxePxFhaXrFt760AnJxEdKzt+7dyMl5/7XbfR3NzaXlhc8v11wwTpN97Z 99MfrNu25Ykep6voSNm7H3y8WJnN3LVzz0cGo/meO/J+Ir7PZLEcLz97ubVS/vKbn/v++P5Hn/7n vf2jeCHFn3+Ze6Pyn89t7ujS/27rP06ozzY0a7Y8+VOrzf7c9tdPVVT5uUtWm53P4/71D49z2OzG lrY/vfDKwLxEAAAAAAAAoxCU/8CGqbXH+9/aTkS+u+3PLVc9VlAQn8/zjYgR4QKL1cbMxDtJ2K2W dr0pIJuS8518Pt//9riGO7DtbTYb6o/6o/6oD+qP+qM+qD/qj/r4035a93NeTbx9fYP6JM0WK8oC AAAAAAATi4USAAAAAAAAADInAAAAAAAATDFTb2xtVKxsFLcAAAAAAAAAMuc3G7ociz+3AAAAAAAA wPjD2FoAAAAAAABA5gQAAAAAAABkTgAAAAAAAABkTgAAAAAAABhbQfkPbEAVYHzYrZZ2vSkgm5Lz nRKJBCWdKDqdDvVH/VF/QP1Rf0D9UX/wRwhKAFOUw+HwvzGXy0X7ALZH/VF/1B/1Qf1Rf9QH9Uf9 UR8/22NsLQAAAAAAAIwVZE4AAAAAAABA5gQAAAAAAABkTgAAAAAAAABkTgAAAAAAAEDmBAAAAAAA AGROAAAAAAAAAGROAAAAAAAAQOYEAAAAAAAAZE4AAAAAAAAAZE4AAAAAAABA5gQAAAAAAABkTgAA AAAAAABkTgAAAAAAABhvQfkPbEAVYHzYrZZ2vSkgm5LznRKJBCWdKDqdDvVH/VF/QP1Rf0D9UX/w RwhKAFOUw+HwvzGXy0X7ALZH/VF/1B/1Qf1Rf9QH9Uf9UR8/22NsLQAAAAAAAIwVZE4AAAAAAABA 5gQAAAAAAABkTgAAAAAAAABkTgAAAAAAAEDmBAAAAAAAAGROAAAAAAAAAF9YnxNgujtx4oRGo3G7 3SjFmGKz2TKZ7LrrrkMpAAAAAJkTAKYFm8126NAhpM3x4Xa7GxsbNRrN8uXL+Xw+CgIAAADInKNx 9KN3iWjxigI2JxTFBZjkmMA5d+7cZcuWxcfH83g81GTsVFdXHzx4sKam5tChQ7fffjsKAgAAAMic o8HmhOo7NKVF+8YidrpdzrMnPte2NLhdzmEbBIewV9z5EOIugD9OnDjBBM5HH30U1RgHaWlpaWlp 27Ztq6mpOXHiBAbZAgAAwDQR4DmElDetjoiUmLt1pUX7LpcMR6287FBL3fkrbNbT6x6L5wW4Kmk0 GiJatmwZSjGeVq9ePVB8AAAAgOkg8P2ci1cUlBbtY2JnYHs7tS0NRLTolgKJVDb03v1vbSeisXhe gKsScxlnWloaSjGe4uPjB4oPAAAAMB0Efq0UJnaOXW/nsIFzwNg9LwDAt4eLZgEAAGC6GZN5a8e0 t/PK/H/eB+/OL1h98x/++vKpiqqh965ctvhHD93z0uvvfHrsiys/41233fLBweJej4f58dUX/vjV 16dfe/t9nFtjjcvlon0A28PEnsAjOl42mw3n8wS2R/1Rf9Qf9UH9UX/UZ0Ttx2qtFN/YqTp6cPGK gvH5GDeiuMtisdY/8J2f/fYvHo/X93Y+j/vAd24LCgr6xqeLihQ98J38j4qODWROGDcOh2NEbwC0 h0l7Ao/ieOF8ntj3C+qD+qP+qA/qj/qjPv63D/zY2om1/63tH+9+1dytIyJzt67o/Tev0LijSx8u 4N+2YvAcKuvW3mroNrndvd/4dDPiYvDRGWDcSRSr1+amCVAIAAAAgMlvrPo53S4n09kYESlR3rQ6 4NsvLdqn79AQUVSsjOlEjYqVMbf48vReaaIOp9P1/kefPnzfHUfLVEaThblx5gzpqptv/OPfXv7d xv8ZaJmcEH/f2tWZ6aler/erk2de27nH0eP84f13rr55CRHtfvV5Itr+r13MQFwWK+i+gtV5uTkh IcGq8rM7/vOeowcXlwIAAAAAADLnGATOcbuYc+jwXWYm2ysrOlq26uYbv3fPHX/f8RZzyw++u7b8 7DnfizyDgoKe2vjoCXXF77b+I1IYsfFH37PZHa/v2vvazvfrm1p//sj99zzyyx6na6D9LUsX7fmo aNOfX5TFxf7yR98zmS1vvvsBTjUAAAAAAEDmnDKBM1AXiPb19b228/0tm35aWPx5VW3jguysuRnp P/vtXwa1efTxPw4MtS356mR21qwrbPPw51/u/qCQiNq0XaUq9bzMdJxnAJfBS7rplrmu8oNlzRfG JLDli1ZfxzlbeLTOHipJy85Kkgj5nGBXj7Gj9rS6Wjdk6ELstWsWh58rPFpnZ36WXLtmifBcYTHz c2hsWnZmqiQ8LNhjM7VXl59uMGGVEgAAAIDxFODrOSekh/NbOnu+5suvT69/4Dtsdsj371v7yZHS 1raOwa/L59pOncEYEX6lC8l6ey/OJ2S12QR8LI0AcDn2tiYDRcfHsi/cwI6Nj6auplY7hcqvXZwV bjlXeriwsKj0tEk0+/pr49kj+v0WOXfJ4tk8w+nSTws/LT1nEc+9cYEc70cAAACAcRXgfs5xC5wD 13MONXCFp/9ef2ffy1uf2vSzR4QRgl17DwxtkDBzxoqli9JSEkURAj6f58/0QgDgD2dbq2Hu3PhY dmurm4jYsfJoMpxucxKx2tWHi8hutXuJyG4/V5+aMDtWTK0d/m6aPWN2UrjxXJG61UpE9ubycrFk SXqSsLnChLoDAAAATNHMyeaETqEezgGdXfoPC4/cddstb777gcVqG3RvZnrKn5782b93f/BhYXGn znB3/spbb1naf19fH84hgG8fOjPjJezWdnd/L2d5m5OIvG5PmDxr7nXicB47mMViBXOIbCMZmiGQ iIJtrV3WCz97DR0mT7JYHEomzOoFAAAAMEUz57itwxnwJ9r9wccabcexsuND75opi+vt7f302Bd2 R09UpGiez8WczGy3yxYrdd3GhqZWncGIUwpgxKGzyTB3bryE1d4eHBsfS13l7U5iBsYuSfI0lZef 1lncHgpLuOHm2SPaMIfNIn7qsrWpl9xqYbOJkDkBAAAApmjmnLpcbnfx518Ne9exsuPXzs14+bnf dRvNza3thcUl31/Xn3jVFVVlx9UP31eg7dL9883dyJwAowmdHU2G4Lnx0SwdO15CHep2NxGRMCE+ vKfpyNfN3UyrMLZ/13IGsy6+q71ka/qitMric7fX67Sj5AAAAADInN/k21/P+Z/39v/nvf1XaHDX Dx5j/uPocf552w7fuz7/8usLH1+9z/7jX753PbLx974/vvHOB2+8g4VSAL4pdHYFZ8XHxrIk1PF1 BzOxLCeYRT32C5PMsoTxM8KJLEMf7PF4iR02EDR5gnBO/3+tOoMngcd2W60XujXZPB7ZMW8tAAAA wHhioQQAMPGhs7WLHZs1O5Y6mvojJxkNJo8oITVOEBoqkKQos3nGLk8wTxzJHvRby2IwesJjEyLZ RMQWpsxNCLswcbS7rbapR5ylzIwT8kJDBZFyxY235C6Qh6LeAAAAAONoqvZzjtuFowAwHqGzvbUr +zqpp+V0h/fCTU3l5WJllnJFMvUYWs+Wf90e5hZdn77kRjpa7Dt1rbP1dHm0MmvJ6lSP225oOl3R FH59LDPA1qtTf/6le25m9o2pYRxyWQztp0tPN+NaTgAAAABkTgCYZtzNZR82X3qT19r8dXHz1xdv MKk//VDN/Fd9cO/l2336YcXA/+0dFV92VKC+AAAAABNm6o2t1Wk1/jcLYXNwjAEAAAAAACbKVOrn lM5M0rY0lH26z/+HxM1MxjG+WnG5XLQPYHuY2BN4RMfLZrPhfJ7A9qg/6o/6oz6oP+qP+oyo/VTK nNmLlpeXHdJpNb1ulz/tZybPylpwIz7aXq0cDseI3gBoD5P2BB7F8cL5PLHvF9QH9Uf9UR/UH/VH ffxvP5UyJ5sTqrzpVnxUBQAAAAAAmCqwVgoAwPix2+0oAgAAACBzAsB0UV1djSKMp9bWVhQBAAAA kDkBYLo4evQoijCeDh48iCIAAAAAMicATBenTp3asWNHTU0NxnyOtZqamm3bttXU1KAUAAAAMK2E oAQA09mMGTNOnTp16tQplGLcCt7W1oY6AAAAwPSBfk6Aaa2goCA3N3fGjBkcDgfVGDscDmfGjBm5 ubkFBQWoBgAAAEwr6OcEmO5mz549e/Zs1AEAAAAAxgL6OQEAAAAAAACZEwAAAAAAAJA5AQAAAAAA AJA5AQAAAAAAAJkTAAAAAAAAkDkBAAAAAAAAfGGtFJiquFwu2gewPUzsCTyi42Wz2XA+T2B71B/1 R/1RH9Qf9Ud9RtQemROmKofDMaI3ANrDpD2BR3G8cD5P7PsF9UH9UX/UB/VH/VEf/9tjbC0AAAAA AACMFWROAAAAAAAAQOYEAAAAAAAAZE4AAAAAAAAAZE4AAAAAAABA5gQAAAAAAICpCWulAACMB43m mra2azSaa4i2ENGxY5ro6Iro6Mro6AoUBwAAAJA5AQBglJxO7uHD9zc0zPO9satL1NWVSUQzZqhu vPF1IqynCgAAAMicAAAwQjpd/MGDj1gsUSyWRST6IDz8cGjoOSJyOmdbLDcbjXe0tSkPHEi+/vpn RaJGlAsAAACuPrieEwBgrDidXCZw8njHk5PXxsY+w+OpgoMtwcEWHk8VG/tMcvJaHu+41Sr54otf u918VAwAABbCa+4AACAASURBVACuPujnBIDpKViYvDB38dwEmUhAZDVqm06XFX9VbfIQUXLB4/m9 /7ftv00XWycXPJ7f83/bPtZm3PfY2pQhvzm1xf98rUw/5DkOH76fCZwJCd8bdifYbE1Cwveamv5t sy04deqh6657CQcGAAAAkDkBAKa8qPnrHs4NrSj67xu7NCZPMF+WuWRV/iMpxW+8dVJ/pcc5K9/Z WklERLJbNjwgKv7r/1V6LtNUo7mmoWEei2WZMeM3V96ZGTN+U1+/t7HxpoSEo5hSCAAAAK4yGFsL ANNPaFpubmzTwXc+Pq0xeYjIY9Oc/vidg02xubkZoYF6Eo3mGiISiT5gszVXbslma0SiD4iImVUI AAAAAJkTAGAqk6UnhDSdqrJdcqOt6lQdJaTLggOaOcPDD/vTmGmGzAkAAABXnwCPrT360btEtHhF AZsTiuLCmLLZbGPUeBq2n26Cw8JCeqy2wYNiPbaenhCRIISsAXkWvT6eiJhZar8R08xoTPDz2OH8 n9j3C+qP+qP+qA/qj/qjPv63D3DmZHNC9R2a0qJ9iJ0w1vj8EUzyyeVyHQ4H2sPFcBkmEAaT5pLY GcwPC+u1Wp3D/W4MGflvy76+UexakD8nts1mw/k/ge1Rf9Qf9Ud9UH/UH/UZUfsAj61V3rQ6IlJi 7taVFu1zu5z4aAsAk5G2qqk3YV7mpX82QtPnpVBdlYbIZrSGiKJ8742SRJFRbxzRk0gkrUTkdM72 pzHTDEt0AgAAwNUnwJmTzQldvKJgnGNnadG+0qJ9OJYA4C9ndXGRJnbFfbfNlQmDiSiYL8tYdd9q maaouNpJ1HH6pDZ2Sb5Sxg8mCuZHpd1y2yJBnarCNKInkclqiMhiudmfxkyzJUuaY2JiRvQdKgAA AMAkF/i1UpjYWVq0j4md4zDIVt+hwYEEgBExnX7nDeui3MW3PbyaWZ9TU3d67xtl9Uys1Kveeac3 N/e2R5aIBCG9Vl1Txf63iqtHeNGHTFZz/DiZTHeIxf+58tS1brfMZLqDiLZvVxApmBttNpvdbrda rSaTSavVdnZ2dnZ2tre3u1yuaXi8Tpw4odFo3G43Tt0ph81my2Sy6667DqUAAEDmnNqxcxSCgoLy cnNW5ebESaOtVvtx9dldew8YTZbAPsurL/zxq69Pv/b2+2P0KoKDWX/fskmj7Xzm76/ibAYYWeys L9tXX3aZO52akx+/dfLjKzxc8+n2rd+UOZOSTjc0zG1r+3NCwkNXaNnW9mePJzwh4WhjY5hAIODz +Vwul8/n8/n86OjoQY3NZnNTU1NVVZVarTaZTFf9YbLZbB9++CHS5tTldrsbGxs1Gs3y5cvRhw8A gMw5VrFTdfTg4hUFk+2V33XbinvvyPu//UXV9U0xEvFtK25acdPi9z4snHKH0OP1eL1enMoAk9DN N7+1e/cmi0XZ1PTmjBm/Hdrb6XbL2tr+bLcrebwuheLN55+/2JcaHh7OxM6YmJiYmBipVBobGxsd HR0RETFnzpw5c+bcdddd9fX1p06dKi8v7+7uvlpreOjQIbfbHRUVJZPJBAJBSEgIzqupxWg0NjU1 mUymQ4cO3X777SgIAAAy5zSSl5vzyZHSdz/o78f45Ehp36hmmZzgwOnx/vy3W3EeA0xOoaGO1at3 HDy43mJRNjTsFQr3hYcfDg09T0RO5yyL5WaTqcDjCefzdTfc8BybfcngXYvFYrFYiKiurs73dplM lpiYqFQqky8oKChobGw8duzYiRMnrrICnjhxggmcmZlYuXSqEolEIpHo1KlTJpPpxIkTGGQLAIDM GTBul5Pp5IyIlChvWj0JX7nX642OEg/8OBA4f/qDdXMz0v7n1097PP2dh3ffnpeXu/iHj/3+lb9u 3r3/E5k05uYbFwYHB6vKz+74z3uOnv55km5flbvmlqXiSGGXvvv9/xZ9euwL5nYWK+i+gtV5uTkh IZc85NXn//DOvoOpSfKbl9zwxQn1tlfeIqLVy2/Mz8uNFosMRvPBQ599+HGxt6+PaXy5p37+j79q bm3/+6s758+Z/ftf/dj3NR4vP7vlxVeCgoLy85atuWWpKCK8tb3jvQ8LvzhxCqc+wPiQSFrvueeZ w4cfaGiYazA8aDA8OKhBQsLR669/1+PR+7lBjUZTXV1dWloaERExf/78+fPnJyUlJSYmJiYmrlq1 6vDhw2VlZVdN9TQaDROzcSJNdQkJCadPn9ZoNMicAADInIEPnBNyMSczje2VB/R+cqTkge/kb/3d Y0VHSr86ecZm719MZn/R0eVLb7jhOkXJ/2fvvuOaOrsHgB8CCZAQiEgAA5ooOAAFF6JQRUWsUBWo m7qrr6uOVqsV+2vt+1bbKtaqdVtn1VasglpQGTIUZShDAWUIARKBQEjIgCQk/P6IIgIiICt4vp9+ LNx77sh5bm5yuPc+T9wjACAQCB5uHwWHxahUKtDSWjrP5+SFK0s3fGdhbvq/b9bO8fY4/VcgACye 6z15vPOJPy8/eZrNMDcdPsSGQCCob3l1d3W+fOP21h17LXqZbVy1SFghUi8CWlq+M6Y+zXq+//if +YUvAGDh7OlTJn509GxAZnYuszdj1eK5ZqYmR07/rQ5+26ZrpaZnLlrrp/7ZbqD1ptWLr9+OBICl vj6Ow4b8evgMu5A7eFD/r1YtFEsrH6dn4tGPUMdQX+3kcPqr/+NyTQGATufQ6Wnq/0gk/VYMp1pR UREZGRkZGdmjRw8XFxdXV1dTU9N58+Z5enqGhYXFxsZ2g96G1I9x0mg0PIo0nYGBQW2DIoQQwppT 4wtOaF5PtpevhxZyiz0njfvi889WL1HduRd/8sKVyioZu4D7OCPLc9I4dc05eoQ9lUK5HXlPvVTE 3biw6AcAwC7kPniY4mA3EACoBpRpH48//VdgxN14ACgp5Sc/eVq7ofCYB38H3gQAbhHvXnyyehG1 Un65/6HT6p9pRlQvj4knL1yNik0AgBclpWR9vXXL5weFRLwo5r1t03VVK5XqPpCMDKnL5s/4O/Bm StozE2PaVHfXnfuOZ2Q9B4D4pMdh0Q+8p0zEmhOhDmZhkaUePeXgwYMA4Oo6s63WXF5efuPGjdu3 b48ZM2b8+PEmJiYzZsyYNGlSQEBASgre1IC6xrcNfBAXIYSw5uxOBWfzPXiY+uBhKoWs7+7qPH/m VCJRR32D643bkVvXL2f2ZrALuFMmfhQT90hYIX65TJ1HPiurqgwoZABgWjJ0tLWfZGQ1upXqamXt z2KJRL2IWvbz/Nqf+zF762hrZ2S+fnArI/O5lpbWQGuWuuZsdNMNEbS0Nq1eXMAp+jvoJgD0Y/Um EAiffzZjyVxvdQCJRCrgvMBDH6FuRi6XR0VFRUVFDR061N3dvU+fPsuWLXv8+PGlS5dkMhnmByGE EELdpObUoIKzlkRaGRgSzjCnOw4drJ4S9+hxCa/sk0njrv4bZm87YNN2/6bXoKtLfP/d0NJqfHpL OzaaN+MTy15m67/9Wf2EqkqpAoAdvx4t4Bbh4Y7QhyA5OTk5OXns2LHTp08fMmSItbV1QEBAQkIC ZgYhhBBC3aHmJJJ027vgbM6zms0o8LT69rF4zi6snWJkSC3lC16VeTU3wqJ9P/1EqVRl5rCzc/Ob XltuPkdVU2M3yDo3n9PqXXqeV6hUqmwGWNXu1cD+fWtqarKfs5u/kuFDbD71dPv25wMVopcXZrPz 8quVSofBA7HmROiDEhMTk5qaOm/ePDs7u4ULF1pZWf3111+Ylg5EHrnu969diGmHvvhv1HsOo0p0 3nRyvSOp9ne5pISdHBZwMSiFh3lGCCH04dWcHTAOZ3Oe1XynwTb9f/xm7b34pLtxj+QKxcihg0eP sP9p3/HagLCo+76ffjJlosveo+feuTZ+ufBm+N15Pp4Coehpdm4fhrnHpLF7j5yVVlY1f5fKhRXX b9+Z5+MhEFZk5uSx+lgsmuMVFv2AU1TSzDX07EH7cuXCwJA7hdxiqgEFAOQKhUAoCgwO/2zG1MpK 2ZOnWUaG1I/HO2c+Z9+6cw+PfoS6N6FQeOTIkTFjxsycOdPFxaVfv35//PFHcXExZqZDSs6h7kOB w5H2d3ekR4W1QW1YErnvcJQAAIBIZjh6zvL120re/NVFNqYaIYTQh1ZzaorH6Zk/7j3qNWXiuuWf 6Wjr5BVwfvA//Cg1vTZAIq28G/dohINtbHxSc1Z44vzlCrF4+fyZBgZk7ouSwJCIFhWcaqf/Cirj CxfN8eppTBMIKoLDYv65Edr8xT+e4GJINZg5zX3mNHf1lOu3Ik+c/+fPyzf4goo53lPWGM8TikQJ SU9wrBSEPhz379/ncrkLFy7s1avX119/ferUqbS0NExLezNynGSrSNh3RrFok7szIyyI23Q40YhB Bx5X2ESvrlJuXnr6y9Wkp6QrGKdWDx3KuMjmYrIRQghhzdlVJSQ9SUh60kTAgH7MWxH3qpWvewBa /tX3dQNOXQw8dfHlaCVKperileCLV4LrraSJRerNAoCampprt+5cu3Wn4c40sZ6N3+9W/3Dhyr8X rvzbcNmampp/Q6P+DY3qZi2or6+P8W0Yjzr3AG5Re0kkkhbFl5SU7N+/f8aMGcOGDVu5cuXNmzcj IiLw+GxPdGf3/tKEyykp8kSBu6srI+hi06Uhc9bWr+HwihPpzd6CQiEHhUSh8Ud+Bxz/eP5v23jM P+Yf84/5aUU89l3euBEOtoxepjcj7mIquqzKlgxoqK+vj/Goyx7ArWivlh4PQqHw5MmT48ePnzFj xpQpU8zMzM6dO/e2wRLx+HxfDOfxTEHs6XQFQGQsx9PZnXnxTNvdBEs0Yjr6zrSV3tuXwNPsI7/D jn+Mb9v3I+YH84/5x/y0NB5rzsb5eLhFxyaWCyswFQihbiMyMrKoqGjZsmXDhg0zMTE5fPiwSCTC tLQ5pqsrixd7KBsAgB0Wmufp7W574UT6+12UZPnu/du39jdBVuC+M4lCzDVCCCFNgDVn4779+QAm ASHU/Tx9+nT37t1r1qzp3bv3119/feDAAR4POz9tW9buzvS8sKiXFzZ5iZFsX29X2zPpKfWLTutF B3Z4mtb++v3f6mfxS4K3rT2TXX+tnNDd+0J5AABEIs3C0XPm1l2sMz/8FIbPcyKEEMKas831NLNo xRSEEEJqxcXFu3btWr58eb9+/b766qtDhw4VFBRgWtoK0cHd0ZREe+OqJADD1eFESmK9opMd+NOX kUQiALC8/HxJF3YG5AGAQiFo7K8ACh6X/arDIHZ2dkoe/LrLd+bIqP2JCkw6QgghrDnbVsPhWJoz BSFU/5sxkfi2x/lQ+5HJZOrkd+5uiMXivXv3Ll++3N7efsOGDUePHs3MzMTWaQtkB1dHclbgD8dj JbXTKEMXbfUa70hOjJW+WUYKuVz17bFEqRykPDa7BQ99ctk8OcXCgg6JeKUTIYRQF0fAFCD0YaLR aADA4XAwFR2ptLS0Nvmd7vjx4wkJCSQSae3atQ4ODtg6bVFyDnV3JGZFBqez60gPjUonOrg6GrXl lpj9GSQ5jyfAnCOEEMKaEyHUNTGZTABIScHBWjtUQkJCbfK7grNnz965cwcAli1b9tFHH2EDvScj x0m2kBWbUK9zH2lCbDrYvl/RSWawbF9yGOk6b+t6T9OSqOAEKSYdIYRQl4d9CCH0gWKxWGw2Ozc3 Nzg42MHBwcTERFdXF9PSfjgcTkJCAofDodPpLBar6+zYlStXJBLJ1KlT58yZY2hoGBwcjI3VWnRn dzvIOp7QoD9ZaUJs+rLV453pYSGN9tiUfWLtines23T8+u/Hq3+US0p4eemnf7gQko63xyOEEMKa EyHUhY0ZM+b+/fu5ubm5ubmYjQ4qSuj0MWPGdLW9unXrllQqnT17toeHh6GhYVBQELZUq/BCvp0T 0ugcadRPC6Jau1pFrP+CWMwuQgghrDkRQhqHRCK5urrm5eUVFBTw+XzsUqj9EIlEGo3GZDK71BXO umJiYioqKpYtW+bi4mJsbHzo0CFsNYQQQghhzYkQagMsFsvGxqaysrL5i0gkEgqF0vx4fX39Fq3/ Q4vvIlJSUg4cOLB8+XIbG5sNGzYcOXKkqqoK3yAIIYQQek/YhxBCCKGXMjMz9+7dKxaLraysNm7c 2KNHD8wJQgghhLDmRAgh1Ga4XO6BAwf4fL65ufnmzZu77M3ACCGEEMKaEyGEkEYqLy/fvXv38+fP DQwMNm7cOGLECMwJek/V1dWYBIQQwpoTIYQQekksFu/du1c9mujixYs9PDw6cWcEAgG2SDc4ojAJ CCH0wcI+hJCm0tfXx/jOipdIJJifDyH/AQEBJSUln3zyiaenp5WV1YULF97WN1K77g+Hw6HRaHjS 02hsNruJpsfzD55/ML798p+cnMxms7Fr+q6MSCQymUz1UGrd9XjGmhNpKuwHtRPjMf8fTv5v3rxZ UFCwZMmSgQMHrl+//uTJk7XFQ4e93rKysrS0NAsLCwMDAx0d/NjSMAKBgM1mC4XCtx26eP7B8w/G t1P+JRJJWFgYVptdn0KhyM7OZrPZU6dO1dbW7pbHsw4ABJ094LVwLf6L/7b3v3hOQUgTpaWl7d69 +/PPP+/Vq9emTZuuXr0aERHRkTugp6dXVlZWVlaGbaG59PT0cOgdhDqYuuC0t7efMGGCpaUlmUzG nHRNmZmZwcHBWVlZN27c8PLy6pavUSt3FQNbGnWM5UXuL8qEbbKqPhQZjg/ZifE4PueHmf/Zs2eP HTsWALKyss6fP19bBLbf6718+TIAWFlZVVRUiEQiuVyuUqnwXKpBCAQCiUSiUqmGhoY5OTkAMHPm TDz/4PkH4zsg/4mJiXl5efb29itWrMBzkUb47bffsrKyWCzWyJEju9/xjDcpIYQQapZLly49e/Zs wYIF/fv39/Pzu3btWlRUVMds2tDQ0NDQEJsAIYSaicPhAMCECRMwFZrC09Nz3759HA6n+TWnBsGa EyGEUHOlpKSw2ezZs2cPGTJk5syZo0aNunXrVlZWFmYGIYS6FPVjnAMGDMBUaApLS8vahut+cKwU hBBCLSAQCI4dO/bHH38IhcI+ffosX778yy+/HD58+Ls/bwj4iYMQQgg1rns/cIvXORFCCLVYcnJy enq6i4vLxIkTe/XqtWTJkk8++SQ8PDw2NrbR+NGjR/v6+kZERFy7du2dK+fx7Hg8Wx7PDuA4AHC5 z/T14/T04vT14zDzCCGEENacCCGEPghyufzOnTt37twZP378uHHjTE1N582bN3369PT09NTU1PT0 dLlcXhvco0cPLS2tcePGTZw4MTo6+sqVK432BqRQUBISVnO5o+pOrKx0qqx0AgAKJdTUdAuBUIHJ RwghhLDmRAgh9KGIi4uLjIwcMWLExx9/3KtXL0dHR0dHRwDIyMh4/PhxVlZWUVGROpJIJAKAs7Pz uHHj1Nc861aeAgHr/v3NEgmdQBDRaIFUariubgYAyGQ2IpGbQOAtkbgXFNiYm69ST0cIIYTah8lQ z3HG2bcjMsXtuQjWnAghhFBLPHz48OHDh3369BkyZMiQIUMsLCxsbGxsbGwAoKqqSiqV1kaqK0/1 Nc/aylOhoKgLTjI5gcHwIxI5tfFkcjyZHG9sfJbL3SmVOhYVHe7dezpe7UQIoa5Dt+9YN+PM4IfF 3WV/ROzUxGKRTONeONacCCGEur/8/Pz8/Px///23Z8+e9vb2dnZ2TCZTT09PT0+vXqS68pw4caKb m5tQKJw4UaguOJnMRY2umUjkMJmL2OwzUqljaek2U9MtjUXZbgo6YOzv4Rcjf3PiMe+e9SIf7Jiy KUTcyCxR8GZ/4//9MFq3/rqzDvsuOZ+PbYwQQvURaMZGhG61P7LywnwNfOFYcyKEEPqQlJWVqZ/2 BICePXtOnz690b5ttbS0AMDIyIjLHUggiBgMv6ZXy2D4PX9+RSSaQaVeaUmXQrLorfUK0aZnuYWr q9V1AQfMj3j4hcuxRRFC3ZGuyQD7wX3NjCgkkEuExblPUjNLtfuOdbdXJt2MzX91mY9oOdpzhN6T 0MgcZSPx0HfsJ8PoAODyKVP0LDw0TahrNmCYnbUJVU9bKRG+yExKzRUqAAB6DPUcR312j00bbNPL SE+7Spibev+ZgjnM3tqESlSJuBkPH+YK6z/rTyD3GjzUxpJO1QNllaiUnZaaViwFADAbMdWFmnEz MuflfTQmI6aOM8q4GVFoVn9/atdlMmKqCzXzwXOqjU0vIz1thbQ4O+lhZqkCAEyGerpQnz3gmg0d TBclBWcau9feKKve7ehsyuDBlkZkIlTx85PjU4tlum++8KQ6O/22RT7gP0vgmw0hhFB715+1j3TW VV1dXVNTc//+/Q0bUgGARguse0tto4hEDo0WCADqXoUQQgi1HtFy2GgbqiA1JvTmzfB7aQKqjcuI PrrSwlwe0JmM2rs9iCaWJsB/XihtPF7GfhD+RADygvh/r0dmCAk97Me52JD5qfdCb4beyxAZ2491 7PNyFBCVUtvI2oZWeD/0RtDNh0ID6xHjXayVGTHBN66HZ6sY9vaW9W8xIZoNGzumj3bxw8jQf0Nj kkr1+rq42PdosoCptz9vzFOqtI0G2NGL40NvBF2/mcQ3Gjx6hCVRPUepTe5nY1aaGh2Z+uLNMTJV Sm2jgQ4MflJ48I2gmw9LydaOg80ITW7oLYtgzYkQQgh1FHW1GR4evm7dugsXLkREWAIAlRrenGXV YVVVozGNCCH0XshGVFJVKfuFUCqVissLk+9FRqcVK0DBzeUqjZmW5FclJ9MEinNfyN4Wr1IolCoA lUKmUKiIDJu+VEFGfHJhuVQqLc9PSmIrzAf2NXq1TW1hbkaxTAUgK+bygQSlz3KECgCVmMuValON qW/uoW4vK0sKP+NhWrFQKpMKX6Qm5Yqofaybrt7e2J+Gs4W5TwqlKgCV7EVGNp9k1seM+HIORVGQ nPmiXChWNFhIW/A8tVCsAgDZC3ZpFcnIiPyuDTW6yAcL761FCCHUodWmtrZ2eHj4jRs3aicKBEwA aGZvtK86sx3Uks3qjvsp4u7rX2WiMD+P7XGNzYK0fTNXBBRhSyGEuj9RcbFkYN9RYwnZuS9KeTyh TFiuvvuzOLdQMY5paZCTKQaCCdMEih9yFU3E12FgQtOWFPJq+25V8YuFyn7GxroglAEASEWilxWd UqFSglTwqoc5lVIBBG3tN9dGNaZpSwr5r3uhE5UKlANpxmR40dreYauEgtqdlopFcm1jIzIUCgEA JII6W6q3lFhYW4gqFUrQJmq/c0MtXwRrToS6HH19fYzvrHiJRIL5wfy3KF5HR0elUmlpaUVHR9+8 ebPBIlotPwe0aJGWPs+JOvTUjecfPP9gfPvlvymq0tTIO6KBA5nWQ/s5kJQSHjstKbVQrAJVaS5b 1I/JNMpME5lZmqhePChWNRVfB4lIAIr1hE+t36xuiUSAevWpCgBACaqm9pBIJIKqqs5lR5VSoQCC NrH1L1pRd3VKpQoI2q+umqoUb90ZlbLl2VW2cg9b1MSacjxjzYk0VWVlZYveABjfhvGYf8x/S+Pv 3r2rq6t7+fLlRuNptDwez1YmsyGT499dPspsoNkXRVHXP3Xj+QfPPxjffvl/N1l5buqD3FQgGpj0 sra3H+WiktxKLQcQstkCa6alUSbf0kxReK9U9Y74WnKFCiTs+/eeieqWXyqZtHUFokIBBL06FSaB SCS+WTbW0m7eI4PEuqvTJhJBpVRp6ldcDTqe8XlOhBBC7a68vFxdcDaKTk8DAJHIrTmrUofp6T3A rCKE0PsgkHv0MjNQFwMKcWl+alqxUs+Iqi7JxOxcPpnR14ZpJitkl787/lVVIS7lK/XIRIW4lkyl UkgVrdtFIV+gpBgbv34QkkqnacuFQimor1ES9WprGbIBldScKodiTKtdnYERVVspEkrfM494KL0b XudECCHUyej0NIBZQqG3sfHZpruuVSgshEJvAHj7QClvPp8pCtvocanhQ5vqGdvjMPftzolV6dS3 yolVOdAUAIAjjUorpaeX0tNK6ZgchDoZtd+w0Sb8J8kZLwQK0KNaWtFByn71EKKsMLfYbpQ1WfDk ifCd8QolkKhmZkYSkZSbzbZzGTzKTpGay68ikM2shw2zrEoKfT3yyrsZ9B090lKUEpNWrniRyZaM sxkxQJxUKFARja1H9CULsuN5KgAQ8QXKfmbMHplp5QqikZU9U08JVa8+K17vj5hg+WptAAAgJ/e1 HyB6whapqJb21rQqbkaxotUZrLshPJ6w5kQIIdS1a04GI4HLdeRydzCZi5uI5HJ3KJXUtw/Ome7v 9ZF/g6lxjU18Fd/UxdX0/bPcsHlay1BP9YtPibuNpO5EGoVnR+cBQDyXceiRo0RBxEQh1FlUxUn3 kuztB44Y76CnrZRLRKXs+Huvx/xQFBfylWbauYXid8YrirOfi0ZYu4y3fH4vODk55oHC3m7YWGs9 EshF/Bep91LzWzQypTbZyNhYqQcAoChNjbmvGjp4hNtgPZBLhMUZ91Iz1WN4ygpTk+ijBo/ztFYq pHx2ahqbOtpMfYPtG/uT+3ptAABSdlqhno2LuzFFWyEqTrmf/KL1JecbG4rHI6oJWrmrGJgF1DGW F7m/KBO2yar6UGQUCqX58fh8SNvGSyQSzD/mv23jFQpKaOhuqZROJsczGNsaXu1UKCy43B1S6Sgd HU7v3tMIhAo8qXZlNuayw/OKLHtUi6oIgam08GfUjCJd9XS3gSJvewFVT8WTUnY9GFMs74XHP55/ ML7N869+nOHgwYOtfxvrWjq7D1U9vPXgfYqyrsVkqOc44+zbEZnirrl/a9asAYCZM2d2v+MZr3Mi hBDqfESixNl5V2zsZql0VG7uFSOjq1RquK7uUwCQyQaJRG5CoY9SSdXR4Zibr8SCs4sz1FOpC84E NtnvK4b5bQAAIABJREFUOoMjeH0xM55NjmeTz8Yb75zGdWRKNo++/3+xUysxZQh1rTOyroGBcT+H oXRxZnj3KThRZ8KaEyGEUJdAo+W5u3+dkLCGy3Xk8xfy+QvrBVCpV0xMfsSC8/2QzJ1mrZzvOczW vCdAWVF2UvCfRwJiiuQA4LQ9xE/u57Uz6XW00/YQP7Gfl3+Wm3/QD6N1668s67DvkvP5Dbbxi0+J uuBcdI7Z6E5wBMRF55hnFrAdmZLPbBL3xw/DhkGo6yD3GTPZwaiKz46P76oXBNGHWXN6XirR0oKL 000MdRvvualCppp3rdSQRLjoZdLmr2FuUKkWQHusGSGEUEdSX+3k8exe/WcBAPr6z/T0Hujrx729 3yDUXH289hxdaRC+f8eKjelFcpKxrdvSr/1OjT6yYm1QflPLicM3uYUDAIDtuoAD5kc8/MLfNqSp E6vS3UYiqiL4XX/Hwzt+1xlXlj0fa5ETbmKJXQoh1HVIcyKv5HTLV1aaHHwF27dTtE3nvoa6hPTS 6nnXSitkqrcVnOml1TXt8xriuPIHXBzOGyGEugk6Pc3W9pKr6/cANAAag+FrbLwfC842YDB25Urr JP+N/iHpRXIAkPPTQ/w3+idZr1zpZtBWG3HqWwkAgam0urfUNoojIAam0gBA3asQQgghrDmbcmyK sU1PnUbLztqC06anzrEpxl3opWtpUcctstgWxtyX0/unhz19f9E2bOUfWY0+/gK0sec9hBBCXZvd 2GGkpJAY/hsT+TEhcTBsrB2pjTYyum8VAIQ/ozYnWB1mZ4I1J0LoQyeVdufhVtrsOudfXiYNy866 BedfXm+987ZTGH28tufM7ZKk4JJjywTBv+lZj6a6fNaK9WjTevXw2qqlgzUnQgihLo1kYEAS88vq 3xgkLxOLSQbGbVVzDjKTAYC6l9p3UocxDQXYOgi1h8zMTEyCpigsLOzGr67N+hBSl51zg0rVZefF 6SYA0GULTgAwHLug4u55QfCv6l9Fd/+Emtbc/Es07YdvEoQQQl2fnC8WGxj3IkH6G2UnqaeBgZzP FwMA1C88SdDiUlRLCzpgEYRQc0RGRg4YMADzoBGCg4O78atryzqw3tXOrlxwAkBNjUrH2KLu7+r/ m8zfY/m/B0B4XY3TPDb03pkIBG29gR8xtgQzf8u2+D7aaMo6IOgYz/qv+boLAMDcm8U6xDFwnqf+ 8DR0W2H5YxxzXw5j6y3yUE/1eiz/94Dqupi+9BDzt2yL76JIfYaQh31i8V0U87fsXl9dIZpZ4ZsN IYRQO8qKSZIP83B78zkXg7EeThAXkwZQVsQn9epTd26fPkwoYr9o0UZqx+FsTrA6LE9Iw8ZBqD2k pKQcO3YsKyure9+3qfHn5qys3377LSsrqxu/xjYeK6Xu1U4A6KyCszk92YpizvXw2tprU6Do7nlp yi1V5cvO94V3Thg4z6UM85Q8vAYAQNCmjltYEXWaoG9otuq08NbvFQd8dXow9GzGQY2SH/CdvOCJ ycK97C/718hevpmNZ3xPHuLOO/mFnPtUf8AY+uIDxVJhVeY90NLq8clXJcf/U3r2yx7eW02XHVVJ hcUH56uqxGYr/qAvPsD9xRPfdQghhNqLOObI/rSj6/b4we6T4ep+a8cuXb/JLm3/ihgxQHZwYLbX Ur9ZWTuD0vlg3Mdp/rb5xnH+4UUt2siDXL1RrEq3gaJ4NvmdwW4DRQCAndYi1E4YDEZKSkpKSgqm QiMai8vldtdX1/bVYO3Vzk68wtmcnmyFt34vOfp5jbzKZL5/71+Se/ru0tKlAICCk1GVGWvoulgd RnaYQqDQRHfP69B6aZH0ZQWPVVKBnJNeEXak0XtxtXswDMcvLbu8XfY8oaZKJE29Lbr/t9Gk/7z8 uI+/WpX1oKZaJoo5p2PCFMWcqy4rUEnKK+6eJzEd1DuAEEIItZOikE0rtoeRPLcdDQm/Gx5yaps3 KXr7ik0h6rIyP2DjxpNF47adCgq/G3L+wFLztJ1rt4fzW/gRnKsPAN72QgvaO4aSt6ApvO2FAJDG w5oToXbh4+MzceJEBoNBIpEwG10TiURiMBgTJ0708fHpxi9Tpz1WaqhLCJ5t2vVfvDTlpjTlJoFs ZOA8r8f0zVpE3dIz6wGg4s4fpiv+IFrYKDgZhmMXSBKvqcRlckm5NOWW2cpTlc/uSpOCxXGXaxRV Ddep23swELR7ztxe8+n/vSzriXryF/Uf4FbJpACglArVv9bIxACgTelRLZPge6+Z9PX1Mb7N4+/f v89msxUKBR5gbYJIJDKZzDFjxrRte0kkku59fBYX2xQXDyoqGgRwHAC43Gf6+nF6ejg+ZxuVnXHn t8edf8tMcXqQ/9og/yYWT98/y63pmjNPP+wpZdIgyY6p3MV/MpuI3DGVS9VT3uVYPZf0af4R1O2P /y4ej/nXuPzb2NjY2Njgqa+7fsXVlONZB9tVJRVWhB0hmvYlD5n0shZNvVVdVmDoulgYelhv4Efc XZ8AANSoSo4u1e07nDJ8Wo/pmw3d/sP9eUrt/bS1alRKACg+vFhRlIW5bVeVlZUtegNgfNPxpaWl YWFhWG22LYVCkZ2dzWazJ02aRKFQ2qq9uvHxr1BQEhJWc7mj3nyxTpWVTgBAoYSamm4hECrw0Ori Nl8xvb66YBRLeno+e9sNRsOBOi1oih1TuaNYUp6U/GfGSDz+NSge869Z+Ufd+yuuBh3PmldzNudZ zXfT0iJZ2MkLn9RO0KaaVJe/6iahpqYi8lSPqZtAWS3LeyRnv74JXpb7SJb7SHT3T4vvo0mWg2U5 8QBv3GErz08FpUJ/0FisOZFmURecPXv2tLCwMDAw0NHBP0i1AYFAwGazhUJhWFiYl5cXJuRd6WLd v79ZIqETCCIaLZBKDdfVzQAAmcxGJHITCLwlEveCAhtz81Xq6ajLqqgirLxgfsS3aBRLemVZ7tUU o/BM6tMiXQAYZC5zGyDycRBS9ZQ8KXnXA2dpNWn37v/y+fzy8nI+n8/hcJKTkyUSvOsHIYS6D837 Whn3rgc1m0Ovv7P5hkuSR9clD6/XKGTkIW5khyklRz+vDRDHXuwxdRN17ALemXUvM0XvS/3IV3T3 vFJQpG/jWlMlVleVygoeABiMmlkteCEvTFOWc4VhR3pM36ySSaqy7mtTTagun8nykkR3/8SjDXVZ 9+/fVxecdnZ2mI02RKPRaDRaSkqKUChMTEwcOXIk5uRtFAqKuuAkkxMYDD8ikVM7i0yOJ5PjjY3P crk7pVLHoqLDvXtPx6udXVxGke60Q713fVoyaZBkoRN/oVP9p0Ij2czTj4dKFER9fdDT02MwGAwG Qz1r7ty5OTk5qampcXFxWHwihBDWnJqqKvNe8eHFRm7/oS/4FXSICk5G8cH5lWl3agNUlRWSR9f0 7SZKHv37copUQNA3ZGy+oUXUk3PSiw8vUknKAaDyaYw06V/jGd9Vl7JLL36jLOeWX/tFKSymeWzQ +WyXUlQmfRwqSQ7GQw11ZWw2GwAsLCwwFe2ByWSmpqZyOBysOZuQkLBaXXAymYsaDSASOUzmIjb7 jFTqWFq6zdR0S2NRtpuCjnn3rP1VJnqRnxR4xP98HB8AwNjraIB32GdLAl52xGru9NnS+Z5OtuY9 dUFUVpQdF3jySEASX72eA8b+Hn4xtX/lNHDzD1qZvWLWkSI3/6AfRuvW33LWYd8l5/OxIetQX+10 YlU69a0c3bdqoGklAHCk9LRSehqPXrev2i1btvTs2dPExIROp/fr169///5WVlZWVlaenp43b94M CwvDZCKEENacGqnycWjl49AmAnRZw0Qxf4Ly5eNtKkl52YUtZRcafMtRKUuO/+eNKTU1FZGnKiJP 1Qss/Nap9mel4EXe6tff76Upt+r+ilAHUz/GSaPhEHntwsDAoDbJqFE8nh2XO4pAEDEYfk1HMhh+ z59fEYlmUKlX3tKlkCx66+ta0cDay2/Pzh/En60Nqj/gh7mH/9F1PeP271ixMb1ITjLoY+ex0s// QK+1S/anN3U/jTh8k1u4usBdF3DA/IiHX7gcm/Dt4vL04/L099+BnJwcAJg507VhjFQqlUqlBQUF tVMGDRo0fPjwMWPGeHl5OTs7X7169fHjx5hMhBDSUARMQaP07SYSTfuJYs5hKhBC7wkfjm1OzQkA NFpg3VtqG0Ukcmi0QABQ9yr0TuLsoKAkubVdg95TSU4r19ll7d+4MyS9SA4AcnF+UoDfkllrj6Rj BdkFPH369MKFC7t3787Pz6fT6f/5z3/mzp2LaUEIIaw5uxUj95XihKvKihJMBUIIvT9LS8uNGzea mJg0UXNSqeHNWZU6rKpqdHOCjW1nzRoGaXENOnWzHjuMlBYSU+8hQzGfjxVnF5Kfn7979+5Lly4B gIuLy5o1a1raaz9CCKGuAP/63rii32ZjEhBCqK0MGTKExWL5+fllZ2cHBQVxOG9czxQImADQzN5o X3VmO+ht88dtDwl/FQovkkJObjwSzm9QuRoYyPli8cvf+sw6emBpHxIAgDxu56ztMer1BIXUqUBJ VF1+NrZkJ4iJieFyuStWrBg0aNBXX321Z8+eqqqqzt2lxMREDoeDN8xrIiKRaGFhgU/XI4Q15zs4 MUitmIIQ6qrITGcvL09HOyadRgJJCTc9MTgwICpbipnpnt/2bGxsrK2ts7OzL126VFpa+mqOVstX 9rZFZNHbXz7Paf3ZqQOTHgQGpYsbRon4fFIfYwMAMQBAftDGz8JJJDD22HN0GEn9CSJ7sH/Jzjp9 CI394dR8bMJOkpOTs2fPntWrV5ubm2/atOnXX3+VSjvnHCGRSHAoY42mUCjy8vI4HE7TwyYjhD70 mvOvBiNzNmcKQqhLMhq57sf1LhRuQmhAcDpPQqTZOnu6r94x0mH3t/sThe2wvUnf7eoftOJwCqa+ 0ytP9TVPdeVJo+XxeLYymQ2ZHP/OxWUyG2jeRdHsgP3h3ju/nhWzIqBBh7LZMUlif28P8xB1H7Zy sZgPACR5nQubcj6/zq22crEMm64zFRcX+/v7b9y40czMbPny5fv27euU3cChjDUdDpuMUKfA5zkR Qp1XcbquXu1CST/+7Rb/i2GxKSkpiVEX92/ZcjyZ4rJ8kQOxHYodVn8WEfPelSrPbdu2+fn5bdsm BQCRyK05C6rD9PQevDtUnnRkf5z50q89zBudFWO+cs92r2HmBgBAMugzzGPTD/Oti7Jf4COdXZRI JDp06FBlZaW1tfXMmTM7fgcSExNrhzKm0WhYcGoiGo3m4OBgZGSkUCgSExMxIQh1DDxdIoQ6C2O8 51BK1ukTYdw3JvPCDn2bBTz2y3vXiPSRvstmOdsyaKAQcNMjL5y5mMIDALBedvR7RuAPwaa+vs4s OhkEWVEn9p1JEQIAGNl6LfKdNJRpSgFJCTs57MKZoHSY9N2x5XYA4Pf3eE7g5q8usrEJ2h2VSjU1 NaXT6QMHDmz8Q0hHp1evXnPmwIYNIBR6GxufbbrrWoXCQij0BoC3DJRSnzhm/5G08+vWucX51X+m kx++fQl/1sqlm46uNO9JAhE/Py0peOdnQXFFWHN2XSUlJfv379+yZYurq2tGRkZaWlpHbl39HDIO ZdwN4LDJCGHNiRD6MJD7O7Ag74K6gHyDkFtbDpIdln33tSMvcN+3/nlScn/P5av9tpK2bTmTrQBQ yEks78WOZw5tOcNVGI1c9ePX632TVxxOUZCdl2+aSY/d98M+tpRo1N9z+aqtqwVf/BTlv5ny/S4v zr4vTyRL8XnR9jRo0CBbW9vhw4cbGRk1HalQKFQqVWZmJoNRwOU6crk7mMzFTcRzuTuUSurbB+dM 9/eqd7GUH7LJI+TVz0Er3ILqzksK2Lk2oHnreT0s5+ug/bPcsLE73LNnz65everj47Nw4cKff/65 vLy8wzaNQxl3GzhsMkJYcyKEPgw0Bg3kXB6vqRgjR09n06wL/315aTPxzPFQh13ung4X9icqAACI eaFnYrkKABAmRqULxrNYdEjh0pkMiiAlMpHNAwAe78ROTiRNIAWFQipXACgkQqw42wGJRLK1tbW3 t7ezsyOTybXTX7x4UVJSYmBgYGVlVTdeJBIplcqgoCD17W2OjpTQ0N1S6Sg2+zSDsa3h1U6FwoLL 3SGVjtLR4ZiY/IgJ/5BFREQMGTLE2tp60aJFv/32GyYEtfjrL94XjRDWnAihD4NUAfCOpyst+rNI JbFZr+tSbnqe3JvVnw6JXAAAATevtnyUS+VAJBMBgJuSUuI9af13xOCwhPS0dLaQnS3EdLcfMpns 7u4+btw4XV3d2noyNTU1JSUlI+NlTz8eHh61NadYLK6urq6tNtWIRImz867Y2M1S6ajc3CtGRlep 1HBd3acAIJMNEonchEIfpZKqo8MxN19JIFRg2j9wp0+f9vPzs7KycnFxuXfvHiYEITU7E56tCc/O hHd8MgAArzowq8IiS8jIqsB7whHWnAi1XEtHBsf4LkfAE8hJdCYDYtlNVTOgENS5KqlQSKVAJL26 iqZo9Mk7RfqZb7dxvL3Hey5zX0yRl6RFXTzx8nJoVz1oW9ReEomkixw/ZDJ5woQJY8aMIZFIACAQ CJ48efLkyZPnz5/XW4/6qoJYLFYqlcHBwUlJSQ23oq9fPG3a/8XG/qegYDifv5DPX1hvc1TqFROT H7Hg1ERKpRIAiERio4dWK45/uVweFBQ0b948Hx+fnJwcoVD4YZ0/UQd+l+hSn9dNnP/JOvLlQ2JH mBXUnUgDTn8jDvSGlLK+f2a7VSp1sdG72VdcTfn+iTUn0lSVlZUtegNgfJcjzUvngq+jM/Miu17R aTTSy1kRG5bCU0ilUiDSXt+nCUQymQxSwTvvjRVmh53xDzsDZIato+eiReu3KkrWnsnuogdtK9qr 048fAwMDd3d3FxcX9bXNvLy8sLCwlJS3DkKTm5srkUj++eefxMTEJtdf6eT0U79+djyeHY9nV1pq WVNTQyKlUygJ+vpxzew3CHVBcrkcAGg0WsOmb/XxHxsbO2zYsEGDBs2cOfP333//sM6frUEeue73 r12IaYe++G9UUyU62Xnr7yNDl+5v2Kcr0XnTyfWOr4dAl0tK2MlhAReDUnjd9rtEF/y8bjSeZSTY PPo+nSwRVRECU2nhz6gZRboAYGMucxso8rYXOPTMtaT8ffyZZ6EEBxTsPl9xNej7J9acCKHOwo0M TvZa7bl6XsK3F7NrL0ISGZNWr/ZlJedFpfAUeVl5cvf+/emQ/fIbDcOORZJk5TX5/YZIt3ZgSFNS uAoAKTc96swFB9dNTAsyqGtOHCzlvU2aNGnKlCnqavPp06fR0dGPHz9uepEnT5588803zVw/nZ5G p6epS9nExEQikWJsbI5p12h8Ph8AmExm2672/Pnz33777cCBA0ePHv3gwQPMc5Ml51D3ocDhSPu7 O9Kjwho9iZIZ1nRJNleukCikQDSyZpCy2Q0CSyL3HY4SAAAQyQxHz1m+flvJ2BF456IQFeqCM4FN 9rvO4Ahef87Fs8nxbPLZeOOd07iOTNHygcE/p8zBq52o4+H4nAihTiOMOrQvksfw/v7XrYs8nEc6 OIx0nbfuxx+X2/KC951IkQKANCEoqqT/rFVeDgy6EZ05ctHqSfS80OD0pm+TZbgv37R1vYcDk25E pzMdPD3tgJeVJwWQSOVAsRjqwGTQyZj+1rCystq2bZuXl5euru7jx49379598ODB7Oz2uoLMYrHo dLpEIikqKqqsrFTfn4k0S2VlJYfDqaqqotPpLBarbVcuEAiCgoIAwMfHp27PVaghI8dJtoqEC2cS BEx3Z0bjMXTHxX57j/7o259iu+zXo3vXz3JoJFDKzUtXS0kMO+F/IQ0shg5lYII70+rhCeqCc9E5 Zt2CsxZHQFx0jpnAJvfUE83oe/dtpevwxd8sG6XubNzCY8O33yybYKb9ejbT44uVE8ww26h18Don Qqgzq86Uw1u2JMz09XaetcqTQpJLStjJobv3XU589fClNP3Mf3crlvmu/sWXBpISdvLln84EsZsu ORUpJ3aeWLTIa/WPi2kkuaSEmx6576fLbACQJgeHclZ7+v3oHPrTihPpmP+WmTlzpqurKwDweLy/ /vorMzOzAzY6ZsyYuLi44uJiiUSCTaC56HT6mDFj2mPNMTExTk5OTCZz6tSply5dwlS/rQWc3ftL Ey6npMgTBe6uroygi9yGQeygb1cEW8/75XtPCid4y1dhzbljVqGQg0KCY450HjsT3igGV1RF8Lv+ jtLf7zrjyrLno02fxpUMeneXQtVisd6IaU7pJ2KLMckIa06EkKZTcBMv+idefPt8XuKZnxLPNJyR fWbtnLf8rmBHnfhv1IlGatzEE18tPYFJbykGg7FkyRJzc3O5XH779u1bt2512KZJJNLkyZMzMjLY bLZAIMDx9DQLkUik0WhMJrPNr3DWdfHixW+++Wbs2LGxsbGFhYWY9sbew87jmYLY0+kKgMhYjqez O/PimcbuhiUyPBc7c0/8FOq+atHIBP/EJrv8JhoxHX1n2krv7UvgYYo7r+ak8wAgMJXW6BXOujgC YmAqbcEofn8jTjO6sa16FvHIwtPD+dnp2DJMM8KaEyGEUHuaOHGij48PABQWFp48eZLH64RvlywW q/lFS3v3kSCRSCgUSvutH/swaykOhxMdHT1u3Lg5c+bs2bMH37MNMV1dWbzYQ9kAAOyw0DxPb3fb CycaeUqBzKDlXT4TlS7ghLH604kgbBjC8t37t2/tb4KswH1nEnE0qs6sOU14ABD+jNqc4PBn1AWj +P0NOc1addnD67G2S6aNenY6HqtOhDUnQgihdqGnp7dkyRJbW1sAiIiIuHr1KuYEdU3Xr18fNmwY i8VydHRMSEjAhLzJ2t2ZnhcW9fLCJi8xku3r7Wp7Jj2lQUUpTDyjvhMkO+jwW57T5oTu3hfKAwAg EmkWjp4zt+5infnhpzAu5rm9ODo6zp8///bt2//++28jf1AwFACAupfad1KHWVKaWUIqy2JDYm0X eA5/du4R/mEBYc2JEEKorZmZma1YsYJOp4tEonPnzmVkZGBOUJdVVVUVGBi4YMECHx+fx48fV1VV YU5qER3cHU1JtDcuTwIwXB1OpCS24l51BY/LZr8sMNnZ2Sl58Osu35kjo/Yn4o3v7cTExIRAILi5 uU2ePPnff/+9fft23blaWq1YZU2zI4vjrj+0XzB9eM4FvNSJ3geBdYizXvwp/ov/dsC/+H5DSFM4 ODhs3ryZTqfn5+fv3LkTC07U9cXHx+fk5FCpVE9PT8xGHWQHV0dyVuAPm+v44UIaceh4xzbp6ZfL 5skpFhZ0zHR7/+2ASCQQCFOmTNm3b98nn3xSOz1PSAMAG3NZc1aiDmvREJ3K4ujrKZRxnnYUbAP0 HrSmL/gCs4A6hlQselHWNvdm9KHI8HmqNoy/fPkyAIwbNw6P0vZQXV0dGxsLADNnzmyT9mrv5wln zJgxfvx4AEhISDh79iy+Xzo4/xjf6vybmZl9++23APDjjz8WFxe3+f5o5KmS7Lz16CrimS/+G1b3 85fsuvXoMjjxxU9RLflUJjpvOrmefvnLLUF1bqS1XnRgxyT2vhX+sVKNOjNHR0c3cVruUse/h4dH vb+kKBQKbW1t9d22s23SZw1KPxdv/NPtdw9ksnVy8YJR/OACx+CCUQ1mUoYvXjs8/fCJeCGAhccX 06oDjoSq30baTI9Vs6wAqtPOHbmD3di2o4MHDzbnsNTE8zmOz4kQekkgEGAS2oNYLNaUXSWRSKtW rVIXnAEBAc0pOBHqOoqLi+/cuQMA8+bNw2yoGTlOsoWs2IR6paU0ITYdbF0djVpRxDJYti85jHSd t3W9p2lJVHCCFHPdgdTXPCdPnrx//377eRcAwNteaEF7x93NFjSFt70QALKEFi3bnpIdEfwMaHr4 SB5qNTx4EEIvcTgcGo2GeWhzbDZbI/aTSqWuWbPGwsJCIpEcPXo0NzcX2w5pnODgYEdHRysrq9Gj Rz948OCDzwfd2d0Oso4nNLiaKU2ITV+2erwzPSykhT1Rm45f//149Y9ySQkvL/30DxdC0vFZznZk aGjY6HQCgQAARj3MEl4wHHtxd0zlLv6T2cR6dkzlUvWUbx+cU/Lo9M+PXn0jCPn9SN15sufXf//x OrYFwpoTIfS+ysrK0tLSLCwsDAwMdHTw5NAGBAIBm80WCjWguz9zc/M1a9bQaLTi4uI//vjjxYsX 2HxIE1VVVQUEBCxZsuTTTz9NS0sTiUQfdj54Id/OCWl0jjTqpwVRLVybItZ/QSweZB32BwM6feTI kSNGjDAza+SmWaVSSSAQnjx5EhMTk5/tuHti6CiW9PR89rYbjIYDdVrQFDumckexpHwZ9XLuR5hb hDUnQqjT6OnplZWVlZVh13Rtn9gu3oumjY3N559/rqurm5OTc/ToUWwypNEePXrk6Og4ePBgX19f PJ6RJjIzM5s2bZqDg0Pjpb9Coa2tHRkZee3aNZVKBQAAxF0PnDePjh3Fkl5Zlns1xSg8k/q0SBcA BpnL3AaIfByEVD0lX0Y99tSzUqmLGUZYcyKEOo2FhUVFRYVIJJLL5a8+xlDrEQgEEolEpVINDQ1z cnK67H66uLjMnTsX6vQYpK+vj82HNNqFCxe+//77wYMHOzg4ZGZmYkKQpqBSqVOnTnV2dlb/mpOT k5CQYGxsPHny5NpqMzo6uk61+VKekPZ1hPuaEQmOvbgLnfgLnfj11hxXMuhy7kdYcCKsORFqmZZ+ Lcb45jA0NHzbcyOoXQ/aFrWXRCJpq+PBw8NjwoQJABAREXHz5s3aMHy/dEz+Mb6d8l9dXX3jxo0Z M2bMnTt3z5497f35grr3d4kOO/5dXV0nT55MJBIBIC0tLSwsjMPhAMCkSZPUFeb9+/fPnj1rbGz5 2jdHAAAgAElEQVSsq9tI6agC/QMpbjYFxYOMi2yMi3vpFQNAiYKRVWGRJbR4yzOcSOO/4mrK+Rxr TqSpcCyBNoxHnXvQtqK92uR4WLJkyfDhwwHg4sWL6tFc8P2C559uk//IyEgHBwdra2tfX9/9+/fj +RO17ljqmOOfRqMtWrTI2toaAHJycoKCgur24hYbG0ulUv/66y+VSqVSqZpe/yOO4SOOIcAA9dA+ a9b4YCt346+4GnQ+x5oTIYQ+OPr6+qtXr2axWDKZ7NixY3jzIeqWzp49+8033/Tv33/ixIkRERGY EFSrurq66+wMi8VatWoVmUyWyWSXL19u2N9yWVnZhQsXsNWQRsPxORFC6MPSo0ePjRs3slgskUi0 d+9eLDhRd1VeXq5+RNnHx0d9BalN4FDG3UDXGTbZwcFh48aNZDK5oKDgl19+wQF+ENacCCGENJ6V ldXmzZvNzMyKiop27dqlflgIoe4qLS3t7t27ALBixQpTU9M2WSe+a7qBLjJs8uTJkz/77DMASE1N 3bt3L4/Hw6ZBWHMihBDSbOPGjduwYYOBgUFmZqa/vz9erkEfgmvXrmVnZ+vp6a1Zs4ZKpb7/CtVD GQsEgi51fyZqJoFAkJKS0hWGTZ49e/a0adMA4NatW8ePH1coFNg6qBvD5zkRQuiDsHDhQkdHRwCI iopS9y2B0Afi+PHjGzduNDU13bRp06FDh4qLi99nbTiUcTfQ6cMm+/r6jhkzBgACAgKio6OxRRDW nO9FIZc9SYwpKshVyGUN52rrECfPWEwk4UhBCCHUjigUyqpVq/r27QsAZ8+eTUhIwJygD4pUKj14 8ODq1avNzMy++uqrY8eO5eTkmJiYlJaWtmJtOJSx5uoiwybX/gXw5MmTT58+xXZBWHO+r6TYsKKC 3LfNVVYr7t2+6jLZB8tOhBBqJwMGDFi8eDGVShUKhUePHi0oKMCcoA8Qn8/fu3fvihUr+vbtu2HD hri4uJEjR2ZmZl66dKkVlScOZYzev+A8fvx4amoqDgaLsOZsA+qC09ndx8S8/kC01879DgAV5aVY diKEUDvx9vZ2c3MDgNzc3GPHjnWdrhoR6ngSieTXX39dunTpsGHDnJycAMDGxsbPzy87O7t1lSdC LTV37lx1wXnkyJG0tDRMCPpwdEQfQg0LzlqGPUzUZWejN98ihBBqHTqdvmXLFnXBeefOnV9//RUL ToQA4OTJkxcvXpTL5epfiUSiuvJcvXq1iYkJ5ge1H29vbxcXFwA4deoUFpwIa84O5TLZp4PLzpnT 3HW0tbtUG7TJLmlrE37/advW9ctbscUDO/1WLZ6DbwaEuo2PP/74m2++sbS0FAgEe/fuDQkJwZwg VCs2NjYqKqruFHXluW3bti+//JLJZNaL5/Hs0tNnRUVtBygHKOdyz5eXr6usdMJMouabPHmy+o+A Fy9efPToESYEfWg6ud9aIknXZbLPvdtXO+Ym2549aAtmTb9xO6paqewiDdCGu6RUKZvTmUEXTAJC qK0MGDBg7ty5dDodAFJSUv7888+qqip8Xgihehodl0JHR6dfv36rV6/W0tJau3YtACgUlISE1Vzu qLphlZVO6oKTQgk1Nd1CIFRgPlHTJkyYoB4W5erVq7GxsR30HZtIxPFXNItMJlM3HNacGl92MnqZ drUGaKtdUipV67f9rKFJQAi9vz59+nz88cf29vYAUFZW9s8//zx+/BjTglBL1dTUaGlpAYBAwLp/ f7NEQicQRDRaIJUarqubAQAymY1I5CYQeEsk7gUFNubmq9TTEWrU2LFjP/30UwAIDg6OiIjosO3S aDQej8fhcCwsLLAVNIL6qXIajYY1Z9tT9yRUq6K89PY/pz+Zt6LRYHvbAYvmePVmmJfyy+/cS7jy b+jqxXPtbQes3PxfpfLl9b3ZXlOmTHRZ9uX3gwdZ1wteMs/H020cAPx9fA8A/P7HhdCo+1paWtOn TJjq7kozpBa+KL4UdPN+YgoAHN+z/WpIuO0Aq1HDhvDKyn89csaM3vOzGVPpPXtk5xUcPHmR86KR 0b08J42dPmUi3ZjGF1QEh0UHhUSoamrUW7wUdPOfG6HqsPXL5/ex7LXx+93L5s9ouEt1V3h8z/aL gSHmdJPJE5yJOjpPnmYfOvWXsEL0ctbVYOu+fdzGjbmfmPzb0XN7fvg6v/DFvuN/quf+fe2Whbmp 21gnbW3t+KQnx85eqqySNWeLjS6IJwKEuix7e3s3N7d+/foBgEwmu3379u3btzEtCLWUSCRSKpUh ISGxsbEKBUVdcJLJCQyGH5HIqQ0jk+PJ5Hhj47Nc7k6p1LGo6HDv3tPxaidq1JgxY2bPng0Ad+7c 6eDHHJhMJo/HS0lJwZpTU6hHMmt4ez/WnO+lp5lFWTGn4XRldeO3AVANKN9+ueLyjdDvdx00Me4x dPAglarm2u3ISa5jxowcejfuEQAQCAQPt4+Cw2IoZP2GwSf+/Oc5u3D98vlzlm+skr3sPGCpr4/j sCG/Hj7DLuQOHtT/q1ULxdLKx+mZoKU119vzl9//2Hf8z4Wzp2/+YqlYIv1hz+HKysqt6//z1cqF G7/fXW8PF86ePmXiR0fPBmRm5zJ7M1YtnmtmanLk9N9NJKHRXXqDltayz2ac+PPysg3fWfQy27ph +arFc37ef0I9y3fG1KdZz/cf/zO/8EXDBZfO8zl54crSDd9ZmJv+75u1c7w9Tv8V2JwtNrognggQ agUnVqVT3yonVuVAUwAAjjQqrZSeXkpPK6W3yfpdXFwmTJhgZmYGAGKxOCYmJjo6GvsKQqh11WZQ UFBiYqL6XvSEhNXqgpPJXNToIkQih8lcxGafkUodS0u3mZpuaSzKdlPQAWN/D78Y+ZsTj3n3rBf5 YMeUTSHiRmaJgjf7G//vh9ENbgHLOuy75Hw+Nl4XNnbsWHXBGRMTc+XKlQ7eOovFYrPZubm5wcHB Dg4OJiYmuro4SEQXxeFwEhISOByOmZkZi8XCmrMtuUz2aTix3mXPN2rUHjRdXdLzvAKxRCqWSPMK OADALuA+zsjynDROXXOOHmFPpVBuR95rNLghE2PaVHfXnfuOZ2Q9B4D4pMdh0Q+8p0x8nJ4JANH3 E9OeZgPAzfC70z+ecPDkxRJeGQDcjrz35YqF+nq6da/+0YyoXh4TT164GhWbAAAvSkrJ+nrrls8P Col4Ucx7n0RFxiZE3I0HAHYh98qN0NVL5hpSDSpEYgAo5Zf7Hzr9tgUj7saFRT9QL/jgYYqD3cBm brHVC3awlj6ihvGoIxnqqX7xKXG3kdSdSKPw7Og8AHhY3Pv4Y2dpNakV7UWlUi0tLUeOHNm/f389 PT0AKCsri4mJSUxMVHfF2eiq8Phvw3iJRIL50fT86+i8/P4jFouVSmVwcHBSUlJtZEXFcC53FIEg YjD8ml4zg+H3/PkVkWgGlXpFXz+u2Xski95arxBtepZbuLpaXRdwwPyIh1+4HE+yHfhdonXH20cf fTR9+nR1wXn9+vUmVtJ+x//EiRMjIyNzc3Nzc3Oxrbs+MzOz8ePHk0ikbnk+19GUZsgv5MY9St32 5X9S0p7dT0y5cy9eLlcAwI3bkVvXL2f2ZrALuFMmfhQT90hYIRaJJI0G19OP1ZtAIHz+2Ywlc73V U0gkUgGn/jVD9fVAsUSq/rWyUgYAVANK3ZqzH7O3jrZ2RmZO7ZSMzOdaWloDrVnvWXOqlK+7BSrg FGlpaZmbmqhrzuznTf59s+b1j5VVVQYUcnM32eoFO1ZlZWWL3gAYjzqMjbns8Lwiyx7VoipCYCot /Bk1o0hXPd1toMjbXjDCrKAP9cauB2PyhLTmtBeJROrdu7eNjY2NjU2fPn1enxjz80NDQ5OTk/F4 7uD3C+ZH0/NfXV0tl8ulUqn62ma9+MJCawCg0QLr3lLbKCKRQ6MF8vkLKiudWlJzIo35LtG643na tGmTJ08GgJCQkODg4E48/idPnpyRkcFmswUCAXYp1DURiUQajcZkMlksFolE6q7nc42pOVU1NTt/ Oz7AivWR0/DPZkz1mjLhq+92VcnkcY8el/DKPpk07uq/Yfa2AzZt928iuNFybsevRwu4Re+5e1pa bynfatr2oNRRf1Li+xOhLstQT6UuOBPYZL/rDI7gdQd08WxyPJt8Nt545zSuI1OyefT9ryMmSRSN 9FCnvpjZu3dvCwsLCwsL9d2ztZ49e5aRkZGWllZUVIQJR6gVIiIiBALB/fv3G53L49kBAJUa3pxV UanhfP6CqqrRAPsxsQgAFi5c6OjoCAD//PNPZGRkp+8Pi8Vq/u2a+DevpkkkEgqF0n7r78Z0NGt3 M3PyMnPybkXcPbTr//oxe6dn5tTU1NwIi/b99BOlUpWZw87OzW8iuF4JmJ2XX61UOgwe+P415/O8 QqVSZTPA6jm7UD1lYP++NTU12c/ZACAWS/T1dBuvUFtSldoOsJLLFZyikvfa17atgxHSPMYeBwKW Zq2dtT+9zkQDt50B68TbZ+2MkwOYzzp6aql52v4lm0L4te+/xp7LasQvPiXqgnPRuca7AeAIiIvO Mc8sYDsyJYvtUwot/2doaKirq0uhUMhksvrfhl2ll5aWPn/+PC0tLT09vaysrEWfeQihemQy2dsK TgAQCJgA0MzeaF91ZjuoJdvXHfdTxN06uyMK8/PYHtfYLEjbN3NFAP51STOQyeRVq1apC7xz587F x8djThDSsJqzlxl98njn23fulZULh9nbVFZV1RaKYVH3fT/9ZMpEl71HzzUdLBCKAGCCy6jSckEu u7CULwgMDv9sxtTKStmTp1lGhtSPxztnPmffunOvWbnT1v7lu6+eswsPnrxYLqy4fvvOPB8PgbAi MyeP1cdi0RyvsOgH6vowNSPro9EjwqIflJULJo0b4+I4tHbn6+2SQCiqXac6wMVpWHLa0/zCF7YD rbw93a7dipTJ3us5joZJwLcB+sDwYy7FrNvk7XQkPa72zWTs5u3ED1+hnmDt7Q1/7o/x9HYzD2nZ dz0nVqW7jURURfC7zmg60u8648qy5+P75BVNnNRwblVVFZfL5XK5nFfUz2oihDqEVjsv0tLnOZEG 6N2797Jly4yNjSsrK48ePZqTk4M5QUjzak6xREoh6+/evolEJOYVcP/361GR+GXnHBJp5d24RyMc bGPjk5oOTk57FpuQvGSeTxGv9PDpv0v5gj8v3+ALKuZ4T1ljPE8oEiUkPVGPldKsjxeClgGFXPu4 4+m/gsr4wkVzvHoa0wSCiuCwmNrBUU5dvLr2c9/fftxSJZPfvhP7V2CIy6hh6ln1dkkoEtddJwCk P8txd3UeYtNfoai+8m9YwLVb75nJhknAtwH60IjjLoXL98waaxAX/rKL1z4e3rbZgTuyAQBIw2a7 8YPXhiTB7J9mWwfsz25Jzdm3EgACU2l1b6ltFEdADEylLRjFz3tw4iGnh0AgkEqllZWVEolEKpVW VVVhMyHUWWi0PB7PViazIZPffZ1KJrOBZl8URd1VbRe15eXlBw8eLC4uxpwgpJE1p0gsOXTqr0On /mp07oB+zFsR96qVyqaDVSrVLwf+qDulpub/27v3uCjrvP/jX4EZGGAUhhlBUAYED4ihrAIe0lTS 0iywzdwyrfzd3dq2tb/d3O5d24Ptvbp7t7a/1rbNtr2zMmuNVqXysCpm4QlEUQpPgDDIjEMMAzgn ZobB3x+jLHJyUEDA1/Pho8ccPlxz8bkur3zPdV3f75Ude7/asferFpXP/PQ3TY+ra2rTlj7f9DTn REHT0+UrX2m+qM/+9eVn//qy9epdNpnXvP635q9s3bGvvVVqvkwhRE3t5b9v/mfrZTZfQ7fm07e0 eHfjx9s3fry9vU98ftVaT34Q6D8cpz/Zrt/4aGpYVqZeCCFi09PD8t/N0gshROC0hSlF29frhTlr u/mNR1M2rM3x/IzDpOh6IUTWObknxVnn5EuSjQPL1+fk3c/9HkDvoVIVVlWNMZlSPcmcJlOqEMLP 7yh9uzNFRkYuWLAgNjZWCFFYWJiRkVFdXU1bgL6aOTswYdyY8CGDd193+wMAdKR81yenlz2RHpm5 oVxIEx9NlWavzTIKIURYavqInA9Xm4UQ+qxPNMvSmp0NvbHRoXYhhHuU2htyl6kHcq0B0OsypxAL 6+rSFYoPOh661umMqKtLF0K0P2jt9fdnmva9OPeT1jdtut9YzcC33a8Lp01WqVRpaWnjxo0TQtjt 9s8///yrr75iojKg32bOBXNTvz6cV1N3mc0JwFPG7E+yX3jh0THvritPWTjNkfXitVs5H00cEjZm V+q1fy4KedPZUA8M6PxdYDfxIwC6O3OGhx/T6ZJ0ujVq9VMdVOp0a1wuefuTc55el3b3ulav5rT1 4rX61A4+7vT6halsnpvV8bTJubrwv55IanMg8Rb8/PzGjx8/YcKE0aOvDhx18ODBHTt2mM1mmgz0 58z5yz+80V83T+sLaAF0EXPOJ1ni9+mJH+anJeo/efq0EEJIE9NTxYdPpW64dg+nNHFVxgvus6Ee OaP3TY6yxYXZczU3ntg2LswuhHBP0QmgV0lKenPv3j9arckazXvh4S+3PtvpdEbodGus1mQfH61S +Ts61svdcNrk5HBddNC+pmmTWwsNDY2JiRk1atT3vve9phdPnjz52WefVVVV0WHg9mdOg16rDIvw pEwI4SORslUA9ADH6U+2G99+YqU6tvCTtddu5Ux1ZC9vNmiQo3BXtmLVo4nvrsv3aJlHS/2So2yp o0yeZM7UUSYhxE1c0AWgu0kklilTXj18+CWrNbm0dOugQdvk8ixf37NCCLt9tMmUWle3wOWS+/ho w8JWeHlxpVWv1tlpkyNjE/z8/GQyma+v78CBA8PCwqKjo5vPUKXX6/Py8vLy8rh1E+gVmTNsWLT+ Yunhvds8/5Ehw4azVQD0iPJd24uX/Sw2+8WmWzlT9DuvP6XpKMzKFmvTUjbkV7d1X1bL269ySmVi Zk16Qt0HuYqOh66NCHKmJ9QJIQqryJxAbxQUVDZ79s+OHXtOp0syGpcajUtbFMjlW5XK3xE4b400 LGXhiifmJY4JCxGiWl+cv/PDDRnZeocQImX1rlWOVWlrm33ll7J61yrzqrR1RanrMl+Z1OrO+aK3 Hn96c+vLUjo7bfLopza0rqmvr9doNCUlJQUFBVqtli0H9KLMmTjl3vzD+wx6bYPTo3Efhw0fPTZp GlsFQM8wZj6fmtn0TH/ds2uhM3/dwrlCCCHWtXsLVrPMWSbbdzbg3tGWNfN1T32o7qByzXyd3M91 QKMuNKgYcgLondxnO6uq4q/9iRBCyGTn/PyOymQ57Y8bBE9Fpr329orArPVrlr94Wu+QKsakLvvZ qo2TNix/PrPDOxrMWStTs4QQQox5IeONsA1zV2W19w/Nm5g2+VhJgdF8pb6+vr6+vqGhQa/Xl5WV 6fV6thfQSzOnROqbPOMBugzgzvHS1sGf//BicpT1vSc0L38R3vpsZ0SQc818XXKUtcrq/9434+kY 0MupVIUqVaEQ4tNPPxVChIfH0JOuEThtxYrY/HWL17mvNREO4+ld6150KDavXJGatSqraz7kZqZN /tdPPjkzxv2iTCZjLivg1nnRAgDoQpfrvVZ8FKat9UmOsm79j9Kfz65MUlvlvi65rytJbf357Mqt /1HqDpyvHp3iyRiJANA/xU9LlObvyjZe96Ixe1eOSJwW31XDe3R22mQhRLySMYGALuZDCwCga53R +z7412GvPvzdvaMtS1OMS1OMLQoOaNTvfTOewAngTiYNDJSajdUtL4p1VJvN0jCFVBi75FOYNhkg cwI3z2KxdFPxHViPLuc+25kSZUuJtk2Krh812CaEKDcpCioV31SGFFQqhHAI4bjp7cX+f3v/vtB/ +o9b5zCazYGKIVJx+rrYKQ0JDHQYjWYhhGh5slMqOn3686bmQL7StBuw/1NP/7uknsyJvqr5qOU3 1Nn7Me60enSTnDJZTpls/ZeipKRECPHII7Ou7b23tL0sFgv7/22sp//0H12jKDvfsWpuqiJrV7NT moHT5qaInLWFQoTpjdL4SIXIb3o3MlIt9DsvdepDbmLaZM3l4KZ9jP2fevrfJfXczwkAAIAeZ87e sL5wxAuvrZo7JkwqhJAqxqSufG1lfOH6DdlmIYp3bi+OXbZq4RiFVAipInLaCy8/ocj5JKtz48ce LfUT1+ZDviGmTQa6Cec5AQAAcBvod61cbly84omX317pnp/zdM7O1cs357hjZXnGiy86Vjz78sZl YSFSR3V5ftba5zdkd/I2T6ZNBsicAAAAvVpVVXxV1Ziqqngh3hFC6HTnZLIcPz/m5+yi2JmzeXXO 5nbeNJ/OXPd8ZkdTI59evzC148x5U9Mms10AMicAAEC3czoDjh37oU6X3PxFmy3FZksRQgQE7B08 +L+8vC7TqF6OaZMBMicAAECvU1sbdeTISxaLysvLFBS0XS7P8vU9I4Sw2+NMptTa2nSLZfbFi3Fh Yc+6X0ev5R5IfMPjeve0ydtODco6Lz+r9xVCjA6zp440LRhXJ/dzMW0yQOYEAADoIU5ngDtw+vsf Cw9fJZFom97y98/1989VKD7Q6dZarUl6/VvDhj3E2c5ejmmTATInAABAL3Ls2A/dgVOtfrLNAolE q1Y/qdG8b7UmGQwvDx78X21VjVmZ+bf0kKandtOl8vztG9ZtzjEKIYQi7e2M9H2Ln864OhBrWMri ZU/MSxkTFuIrTNX64pzt727IyDe6l/OGYt3cVdlNE1kGpq7LXFG8fOEGfeq6zFcm+bb85KK3Hn96 czkbspk2p03WWlWFBlVhlYp7OAEyJwAAQA+pqorX6ZK9vEzh4as6rgwPX3XhwlaT6fty+dZ2hhSy f/2Lf2fFwNi0Va+tfcW8+PnMlhN+hM1d9/YLITnr1yx/8bTeIQ2MjJ+7YtW6N4Y8//T6044OVsGc tTI1yx1wX8h4I2zD3FVZDjZh+1pNm3wPPQF6APNzAgCAO4tMJrv77rs7yJxCiKCg7c0vqW2TRKIN CtouhHCPKnRD5uLMzHxHbHyr0VOlKSteiC9a/+LaXaf1DiGEw1yen7Hq6YXPbzhNggRA5gQAAOhb ZsyYsWDBgjVr1iQnJ7eXOeXyLE8W5S6rr5/kSbFizMKFiaIwp6jlG7HTEqWFu1pOPWk2GkmcAPoD rq0FICQSidPppA/dxOVyuZtMK4DeQyqVSqXS9PT0tLS0zMzM3Nzcprdqa9VCCA9Ho702mO3o9t6f vnpX1rVScSl/17svbsgytkqugYEOo9l89VnkwrffWBYpFUIIR87ahauz3cvJ3NUsgUrlvsZiNiMA MieAPkKhUFRWVtpsNplMRje6nMPhEEIEBQXRCqC3kcvlQohWyXNA55fU3o/Yv1599X7O2MUb37j3 6PbM0+bWVSajURqpCBTCLIQQ5ZkvLs6SSoVi7mtvJ0ql7uUcXf/02mZjCE17ZeMTbD8AfQTX1gIQ MTExQoi6ujpa0R2MRqMQQq1W0wqg1ybPgQMHpqenr1mzZsKECUFBZUIIuz3Ok591l3lyUrQ4Y31W 4BM/WxjZ1nvZ+ebE9LlhV586zGaj0Wg0O5qd2HQYr2O2s90A9Bmc5wQgYmJiioqKqqqq9Hr9oEGD pFKpt7c3bbl1NpvNaDTW19erVKqoqKge/vS8vDytVstV091NIpFERERMnDiRVvRyoaGhCoVCpVLJ 5fJRo0a1mTyFEAsXLly0yGvIEGEypfr7595wsSZTqhDCz+/ojdfAkb9hfc7mVT+bm/38Ln3rt7I3 rnpttWPdhqx8vVkaGBk/7dEVT8Tqd13ilk4AZE7gNunsVaDUd2zWrFkHDhyorKy0WCzsXV3+L90Z M2ZIr14g1wXby2KxdFxvNpu/+OIL0mbPcDqdZWVlWq12/vz5gYGBHE+6u/6G+39AQIBCoVAoFCEh IU3/DQ4O9nD5AwZcvUq2ri5dofig46Frnc6Iurp0IUQ7E6W0+ruZvX5D4eYXXkjNWdXynk5j1uqn jQtXLFv59oqwEKkwGcsL83euXZyZoydz3uZ/S/St/Z/jCf3vnfUDHlryI4446BlWs+lSdddcvRkZ YA8ICOjUXwCbzUb9DevLyso0Gk1tbS1x5dZJJJKgoCC1Wn3DM5yd3V4Wi6Xj/T8zM9PpdCYkJMyc OXPo0KH+/v5sju5z/vz5nTt3FhUVSSSStLQ0jifdXd/m/j948OARI0bExsbGxsa2d+90bW2twWAw GAxGo3H48OGjR7cc9aehoaG0tHTHjh0lJSWHD7+k0yX5++eq1U91sDIazXtWa7JcvnXw4Jf4u9C3 XJuf85F+sP9zfKD/vb+e85wA/i0qKsqTS0A55nZtfdfKy8tzB87ly5ezS/eAkSNHjhw58vXXXy8q KsrLy+Mi2x7TQc7U6/XV1dVVVVVGo7Gurk6n0+n1113MOnfu3OaZ0+l0FhUVbdmyxWg0ur+kT0p6 c+/eP1qtyRrNe+HhL7c+2+l0Ruh0a6zWZB8frVL5OzYHAHSAzAkA/YpWqxVCzJw5k1b0pHnz5v35 z3/WarVkzm4VGho6bNiw+Pj4ESNGDBo0qOl1q9VaUlJSUlJSXFys0Wia/0jH3wE1T5vNX5dILFOm vHr48EtWa3Jp6dZBg7bJ5Vm+vmeFEHb7aJMpta5ugcsl9/HRhoWt8PK6zKYBADInANwp3NdFjxw5 klb0pKFDhzY1H10uICBg0qRJkyZNCgsLa3rRbDa7c2ZRUVFFRUWnFmiz2Vwu17lz51qnzSZBQWWz Z//s2LHndLoko3Gp0bi0RYFcvlWp/B2Bsy9i2mSAzAkAQB/DTbPdJD4+fvLkyePGjXM/raurO3fu XFlZWXFx8aVLl256sQcOHCgoKGgvbTZxn+2sqop3/zEYhl65ckUqPR0QcEwmy/Fw3CD0QgGN7bMA ABsySURBVEybDJA5AQDAHU2hUEyZMiU5Odk93qzD4Thx4sTRo0dLSko6ez95e24YOJuoVIUqVaEQ oqysLC8vTyIJUCjC2EZ9GtMmA2ROAABwh4qOjr7//vvHjBnjflpWVnbkyJHjx4/b7fbbvm5RUVEa jYapjPu02zttMkDm7BZOh/3bvGz9xVKno43/VXj7SOZ8/ymJ1JfNAAB9k3L8vOmK4j37z5tZH9yi uLi4OXPmxMbGCiHMZnNubu7hw4crKyt71UpOnjz5yJEjVVVVTGXcp6lUqsmTJ9MHoJ9kzvzD+/QX S9t719XgPLRn29Q5C4idAICuYNIU5FWarn7L6Rs9LVVxfufxyhaP0dskJCTMmTPHfaGj0Wjct29f dnZ271xVqVR6zz33MJVxHyWRSBQKxbBhwzjDCfSrzOkOnFNmL1CGRbR467NNfxFCXK4xEDsBAF3E XlNRfu2xV5BikFcbj9GLREVFLVq0yD3qb2Vl5b59+44ePdonVrsptNxp8wnfafMzA+gDmdOtdeBs MjBYSewEgF7AP3rG7ARH/s7D5ddO3Egip8ybKP1294ESq69yZOLYaOWgAKm3o762srjg5HlDq/M7 oRPmT5Wf2X2gxHr14D9h/vRBZ3bvdz/3DR2ZGB+rlPt5uyx1l87nF5TWtXWGqL2y4PHzpsvPHdIE jY0bMsjPu76utODIOac6MSFWKZc0mnRnjh8vrWv897W1zuhpDySqhBBTH1ab9TWBYcHux6ZzWXsL 69r7FOX4eVPl547qQsePVZma9wJdLjg4OC0tbcKECUIInU63Z8+e48eP0xYA6Jdu89e+U+csaIqd bd7z2eUeeXC2Tzfc8e/t7fWX37/8ix8/c3v7+exTi95Yu8r9+I21q559ahG7OADPWHUao1ANDW2a r04SOlQlqjQVVuEbOWHqWLnpzKGs3bv3HCqoC4qbNGFop+a18wpOmD41zt9YcGjv7r2HzpgUCdOS Iv07Vdbo8h4UGxdUcWTvF5m7j9cFxk6YMTXWdSZ75xefZxU3hickDL3ue0u75mjWt7XCcTF3x+df 5h5senzgTF0Hn+JqdHn7D48LNRR8faDgEoGze0il0vnz5//yl7+cMGFCXV3dli1bfv/73xM4AYDM 2V0kUt+ejJ0hwUFLFj7k49Mto8y5Gl2NjY3sUgD6KLuuonnolIRGqoSxQmcXwnnpZNaeQ/nlNWar 1VxTceZCnVQZqujMsT48Llpeeyb3ZEWN1WqtKc/P1zjDRkUP6mSZd13pmUp7oxD2Sp1RSIXhXEmd U4hGs05n9ZYr5NctrNHpdDUK0ei0O50NzR433uhTApwXT56/VFNnJnJ2h0mTJv3617++7777pFLp nj17fvvb35I2AaDfu/1zpbhj56E923rgItvwIYO7ackuV+OPX/4D+xOAPh46E+KHKiUVl5xXz3Lm 6+xCiEanyy9ybMJEhdxf4u3l5eUtFcLSma8sA5VB3paKqqaxZBuNlXWu4QqFr6izd6LMajJdzYEu Z6NLWGut1wpdTuHl6SUsN/oUS63Rys7QDcLCwpYsWRIZGSmEOHXq1NatW91zJMpkMpoDAGTObuQe SajJ5RrDnn++98Bjy9ssThgz8slFacPCwwzGmi8PHdu6Y+8Pn/pBwpiRK176rct19QTjo2n33z9r 6n/85DdjR8e2KH76sQXzUqcLIba885oQ4i//+9Her44MGDDgoftnzp99T9BAecWlyk8ydx/JOyWE eOe11dt2ZY0ZGZOceFdVdc2fNrwfqgpZ/P35qpDg4rKLb777sfZSy8EPX3vlZ+UVl/78zofuH9/y 2b8iwganTkvx9vbOzf/2bx98YqtveRb3nddWf7xtZ2x0ZOr0yUfyTr7+9qb21me4euhjD8+LHxXb 2NiYc+Kbv3/4qXtpXgMGLFow9/6Zd/v4eJ/89mx7E4V5uD4A7vTQqTEmJAxVel265B06NFRU5V+y C/cVr9OjXZr8/AKDyekSfurJqXGdWrBU4iUCYmc+HHvdqyaJRAh758uEEI1CCOESN3VpyY0+pdHJ FStdb/78+ffdd58QQq/Xb9mypbi4mJ4AAJmz24WERlRXalu/7mpo+2omeWDAL3+y/NMv9v7m1TeV iuDxY0c3Nl75bM+Be++ZPHni+IM5J4QQXl5ec1Pv3rkvO8Bf1rr47x/+84Km4sfPPLHomRfr7Q73 Ypc9viAp8a4/vfW+pkI3dvSInz671Gy1fXP6vBgw4Afp8/7nL//753c+XProQy/9aJnZYn3ltbds NtsvfvyfP12x9MXf/LGjX2/AgGWPLXj3o63L/u+vI8IG//fPn1+UPve9f2xvXfb49+efLbqw/p0P yysutbc+354p+uVPl+edLPzVH94IHjTwp88+abHa3v1oqxBi2eMPp06ftOG9LWeKS2Ojhj371KLa OtPNr0+f0tmvxqnvwnqLxUJ/+lb/PQ2dlRqjd8JQlZdBMlQpKk+672gcpB4qr9d8eby8xl3lJ/Hs Xk7vplOhDmejsGiOHDrX/PjU2GhvcT7Rw7Jb1M2f0uamuZP3Z7Va/eijj6pUKofDkZWV9eWXX7Ze IMcfjv/U03/637/rb1vmnDpnQesXW5z2vC6jBgf5+kovlF00W6xmi7XsolYIobmo++ZM0bx7p7sz 56QJCfKAgD0HDrVZ3JpSETR/9j1r//zOmaILQojc/G/2fX00/f5Z35w+L4T4+khe4dliIcTurIMP 3TfzzXc//q6qWgix58ChnyxfKvPz7fg84f6DOfu+PiqE0FTojh4/NS5+VJtlBmPNur++d8P1Wb7y FaezwV12MOdE4tjRQojAAP+5qXdv/ueOr47kCSG+q6oeFz9qzMiYW1mfPuSOGpu+F44dT3/6UP87 FzqrvMcODQ31UorK45Xu7wCl3l6i3nrt+0CvQUPD5UK08e2Wy9UoJH5NQdM/UC69+tBsMLrU/hKn 2XztsCnx9xfWll8xeljWKV6tHnfHp3S4ae7Y/Vkmk6WlpU2dOlUIUVxcvHnzZoPBwPGH4z/19J/+ 34H1t/9+Tg+VV+hyThS8/JP/PFV47kjeqS8P5TocTiHEF3sO/OLHz6iHhWsu6u6fdXd2zom6y2aT ydJmcQvDo4Z5eXn9n8Xff/oH6e5XpFLpRe2lFmXuk6Jmi/XarmYXQsgDA25wbeqVZntnfX1ggH+b VcUXyj1Zn6bAKYQwGGsHygOFEMMiwnx8fArPeXaFkmfrA+DOZq+sqEocOzbO69+RU9Qa61xqdewQ 3RmjkA8dO9a/tsol91cESyprrjuymoy1ruGh6uDzhTVOyaCYBLWfS9QLIYRw6oo18VPHJsc7C0qN 9V7+obGJiUPr8/ceLr/uMOphmaecTpeQykNDB1lMVnuzx137KWjb+PHjFy5cOHDgQJvNlpmZeejQ IXoCAHesPpM5G69cWfv6OyNjou5O+d7i789Pu3/mT3/9ar3dkXPim++qqh+4d/q2HfsSxoxcuXpd B8Utl+lqFEKs+dPbF3X6XvE7tr8+6mHhc+6ZMjImKmhgYECAvzuCuid9aR5HAeBWQ+eliqrEiWGu iwWV125rtGvy8xXJY5PnDBf1xopv849f8nMGTRo1fZo4sL/5ne32ioJ8VfLY6fNiXU6rUVNQqJFP CnVfYNtoOJl91JkQnzgt1k8qHCbjpYJDBa0znodlnmbOyuILpgmxU2cMvXBo55lmj0925aegpYCA gMWLF48bN04IUVhYuHnzZpPJRFsAgMzZZ5wvKTtfUvav/Qf/+uqvhquHnT5fcuXKlS/2ff34ww+4 XI3nSzTFpeUdFIsrV5ovrbisvMHlGjd2VC/JnO2tT/yomP/++Qvvb9meuXv/dwbjow/d98Dse4QQ lyqrhBDDIoZc0FS4K729vdmnAdwSZ/nhzPIWUdBcfnx/ebMJLepO7s086X54cufW9uv2ZhY2PbZW Fh6tLLzhx7dXVlPwr63Nnl46mtnsqbXkwNYSIYQQhubrY790cu8XJ689a/7Yw09Bp8XFxS1dujQw MPDy5csZGRknT56kJwCAPpM5h4Sq5syYsufLQ9U1dYkJcbb6+qZgtu+rI48//MD9s6b+v7c3dVzs Hl9n5tRkQ01tqabCYKzdvjNr8ffn22z2b88WDRoov2/GlPMXNP/60qNLgHy8vf/n1z+9oKl4892P PW13hz9SW2dqc30GDBjQ0NCw96sjVlt9SHDQuLGj3fUGY+3Jb88++tB9ZeXa7wzGu1MSJ00YV1Nb x24NAOhhUqn04Ycfdt+9eeLEiS1btlitTDoDAOhTmdNssQb4y/64eqVUIim7qPvvP71tMlvcb1ms toM5JyaMG3M4N7/j4pOF5w4fO/n0Ywv0VYa33ttiMNZ++OkXxtrLi9Lvf07xWJ3JdCz/W/fcJJ4Y 4DUgMMC/UzdG3vBH2lwfp9M5IWHMX1/9VU3t5fKKS7v3H1z2+NURmP604YMfPv2DP/zqJ/V2+659 2Zv/+cW81Gns1gCAnjR8+PAlS5YolUqr1ZqRkZGXl0dPAAD/DkEPLflR9y3dPQ6t5x/R2fomb6xd dfjYyY+37WSL9mZWs+lSddecho0MsAcEBHhez7hhXVtvsVjof6/t/6effiqEePPNNznm9LDnnntO CPHII4/caftnWlravffeK4Q4e/bsBx980NDQwPGH4z/9pP/0n34218fu52zThHFjwocM3r3/IP/i AQCgx4SHhz/55JPh4eF2u3379u0HDx4UnZ/MDQDQ7/WHzLlgburXh/Nq6i6zOQEAt8UdeO/inDlz HnzwQSFESUnJpk2bqqur2Q0AAP02c/7yD2+wIQGgufPnz48cOZI+9JiKioo755cNDg5eunRpbGys ECIzM3Pfvn3sAACA25w5DXqtMizCkzIhhI9EylYBgFt04MABMmdP2rnzThlQICUl5ZFHHvHz89Pr 9Rs3btTpdGx9AMDtzJxhw6L1F0sP793m+Y8MGTacrQIAt+jUqVN/+9vfZs6cGRER4e/vT0O6T1FR 0Y4dO4qKivr9bxoYGPj444/fddddQoj9+/dv27aNrQ8AuP2ZM3HKvfmH9xn02ganw5P6YcNHj01i qg8AuFXh4eGnTp06deoUreixhvfvM35xcXFLliyRy+W1tbXvv/9+cXExGx0A0Csyp0TqmzzjAboM AD1swYIFZ86cOXv2rMFgcDgcNKSbSKVSpVI5evTouLi4/jo/jUQiefDBB6dNmyaEyM3NzcjIqK+v Z9MDAHpL5gQA3C5xcXFxcXH0AbciJiZmyZIlISEhVqv1o48+4sw5AIDMiTtIZ6eAo74L6y0WC/3p W/3H7T009cX9TSaTPfDAA8nJyUKIoqKif/zjHyaTycMP4vjD8Yd+0n/6Tz/JnOgPbDZbp/4CUN+F 9fS/b/Uft/fQ1Bf3t/Hjxy9cuHDgwIFWq3XXrl0HDhzg+EM9/af/1NP/m64ncwIAgKvkcvnixYvj 4+OFEPn5+RkZGQ0NDbQFAHAryJwAAEAIIaZMmZKWlubv719TU7Nly5bCwkLR+QurAAAgcwIAgOsM HTp00aJFUVFRQoivv/46MzOT4Y4BAGROAABwq+RyeVpaWkpKihBCr9dv2rSpvLyctgAAyJwAAOBW zZkzZ86cOb6+vjcxVhAAAGROAADQtnHjxqWnpyuVSiFEdnb2jh07LBYLbQEAkDkBAMAtGTt27D33 3KNWq4UQ586dy8jIqKyspC0AADInAAC4JUlJSbNnzx4yZIgQ4rvvvtu+ffs333xDWwAAZE4AAHBL pk2blpqaGhISIoSora3dvXv3oUOHaAsAoIcyp9VsogsAAPQ/0dHRSUlJiYmJgYGBQojLly/v2bMn NzfXZrPRHABAz2XOS9V1dAE9w2m3SXyZWxwAuldwcHBKSsrEiRNDQ0Pdr5jN5n379mVnZzscDpmM 4zAAoGczJy0AAKAf8PPzmzBhwsSJE2NjY5teLCwsPHbsWEFBgdPppEUAADInAAB9jFY7QqcbodWO EOJ3QoivvtKqVIUq1WmVqrDH1uGuu+5KSkoaO3asRCJxv1JeXp6Xl5ebm8sMKAAAMicAAH2S3S7L ynqitHRc8xerqoKqquKFEOHhuUlJf5VIuiXy+fn5RUdHDx8+PCoqKjo62tfX1/16TU3NsWPHcnNz mf4EANB7DIifnk4X0DO68H7OyAC7eypz3BYGg4H+99r+b9q0SQjx3HPP0ahu3gpDd+58xmQK8fIy BQVtl8uzfH3PCCHs9jiTKbW2Nr2xUR4YaJgx48/BwZou+USVSqVWq9VqdVRUVNONmtfSr72goODE iRMlJSUcf0D/6T/of2/DeU70VZ0ad1Emk1HfhfX0v2/1H13Obpe5A6e//7Hw8FUSibbpLX//XH// XIXiA51urdmc9OWXL8yf/yuXq7pT+8PAgQNDQkKUSmVISEhISIhKpVIqlVKptHmZyWS6cOHChQsX dDrd2bNn2f85PtB/+k9/6H+vrSdzAgD6E+9Bw1NmTU1QRwQFCmGu1WsKDu/POV/nEkIMX7DyoYaM 1z9vdt5x+IKVD9VnvL5LP+axnzwc0+r/ifr9b/39cOu8mJX1hDtwqtVPtrkSEolWrX5So3nfYknK y1ucmLje39/f19dXKpX6+vpKJBL3g6b/SqVShULhDpnBwcHt/W56vb6kpKSsrKy0tLTp6lnGoQUA 9HJkTgBA/xHyvcefnuVbuOfzjR9p61zeARHx0+c+9EzM/o2bTnR4qtF++uM/nBZCCBEx+0dLgvb/ MeO0q51SrXZEaek4Ly9TePiqjlcmPHzVhQtbS0qmHTw4orO/iNlsrqqqqqqq+u6779z//e677xwO B5sYAEDmBADgNvEdOWtWqGbnW7tOu0fucVm0Bbs+bgh8dt6sMYUZp7vmQ7TaEUKIoKDtzS+pbZNE og0K2m40Lrmaa+12l8vlcrkaGhpc1zQ0NDQ2NjY0NFy+fLmqqqqystJkMmk0Gi6fBgCQOQEA6GUi Rql9NJ+du36oWMu5UyXzHhoV4d2lmVMuz/KkWC7PMhqXJCQY77nnNx4u/ybuLwIAoDfzogUAgP7B 28/Pp95saXlRrMtSX+/jF9hVX7JWVw8VQrhHqb0hd1ltrZqtAwAgcwIA0Le5LPX1foGDvFtG0QA/ vwaz2S5E66t7fDp/vc+VKzexagPYOgAAMicAAH2c/pymQT0uPuC6F31HjYsRJee0QlhqzT5BIc3f DVGGiNrq2k59iFJZIYSw2+M8KXaXBQWVsXEAAGROAAD6OPv5/Xu0oXMeezAhYpC3EMI7IGLM3Mfm RWj37D9vF6Ky4IQ+dPpDyREB3kJ4B4SMnP3glMCS3MK6Tn1IRESREMJkSvWk2F2mUhWycQAAdyzG EAIA9B91BR9vNE+ZNfXBp+e55+fUlhRs3Xj4gjtWVud+/HHDrFkPPjM9KNCnwWzQFH62af95S+c+ IiKi6NgxUVeXrlB80PHQtU5nRF1dOpkTAEDmBACgH8XOC4e3XTjczpt27Yldm07s6uDHtXv/8ocb Zc7o6ILS0gSdbo1a/VQHlTrdGpdLHhNzkMwJALiTcW0tAACdk5q6SS43Wq3JGs17TmdE6wKnM0Kj ec9qTfb3r5o48UM6BgAgcwIAAE/5+trmzfubO3aWlm6trPy51ZrkcsldLrnVmlRZ+fPS0q3uwDll yqtSqZWOAQDuZFxbCwBApymVFYsW/T4ra0lpaYLRuNRoXNqiQK0+MH78exKJRQgZ7QIAkDkBAEDn uM92arUj3H90usFCCJVKq1IVuv/QIgAAhBAD4qen0wX0DKfdJvHtmu/7IwPsSqWSlt4uBoOB/vfa /m/atEkI8dxzz9GoHvbmm28KIZYsWUIrOP7Qf9B/+o/mOM+Jvspms3leLJPJqO/Cevrft/qP23to Yn/m+EP/qaf/9P8Or2cMIQAAAABAdyFzAgAAAADInAAAAAAAMicAAAAAAGROAAAAAACZEwAAAABA 5gQAAAAAgMwJAAAAACBzAgAAAADInACAXkIikdCEnme322k+AABkTgDo/4KCgoQQWq2WVvQkg8HQ 1HwAAEDmBIB+S61WCyFOnTpFK3rSsWPHmpoPAADInADQb0VFRalUqtLS0p07d2q1Wvc1n+g+Wq12 +/btWq1WpVJFRUXREAAAWvChBQDQz0yePPnIkSOlpaWlpaV0o2eoVKrJkyfTBwAAWhsQPz2dLqBn OO02ia+sSxYVGWBXKpW09HYxGAz0v/f3v6SkpKSkxGg0Op1OmtZNJBKJQqGIiYmJiYmhGxx/6D/o P/1HmzjPib7KZrN5XiyTyajvwnr63yf6Hx4eHh4eTj+7vN5isQQEBHi+Regnxx/6Tz39p/93eD33 cwIAAAAAuguZEwAAAABA5gQAAAAAkDkBAAAAACBzAgAAAADInAAAAAAAMicAAAAAAGROAAAAAACZ EwAAAABA5gQAAAAAgMwJAAAAACBzAgAAAADInAAAAAAAkDkBAAAAAD1tQPz0dLqAnuG02yS+si5Z VGSAXalU0tLbxWAw0H/6T/9B/+k/6D/9hyd8aAH6KJvN5nmxTCajvgvr6T/9p//0h/7Tf/pD/+k/ /fGwnmtrAQAAAADdhcwJAAAAACBzAgAAAADInAAAAAAAkDkBAAAAAGROAAAAAACZEwAAAAAAMicA AAAAgMwJAAAAACBzAgAAAABA5gQAAAAAkDkBAAAAAGROAAAAAADInAAAAACAnjYgfno6XUDPcNpt El9ZlywqMsBOPwEAAIDez4cWoI8KCAjwvFgmk9lsNuq7qt5isdB/+k//6Q/9p//0h/7Tf/rjST3X 1gIAAAAAuguZEwAAAABA5gQAAAAAkDkBAAAAACBzAgAAAADInAAAAAAAMicAAAAAAGROAAAAAACZ EwAAAABA5gQAAAAAgMwJAAAAACBzAgAAAADInAAAAAAAkDkBAAAAAD1tQPz0dLqAnuG02yS+si5Z VGSAXalU0tLbxWAw0H/6T/9B/+k/6D/9hyd8aAH6KJvN5nmxTCajvgvr6T/9p//0h/7Tf/pD/+k/ /fGwnmtrAQAAAADdhcwJAAAAACBzAgAAAADInAAAAAAAkDkBAAAAAGROAAAAAACZEwAAAAAAMicA AAAAgMwJAAAAACBzAgAAAABA5gQAAAAAkDkBAAAAAGROAAAAAADInAAAAACAnjYgfno6XUDPcNpt El9ZlywqMsCuVCpp6e1iMBjoP/2n/6D/9B/0n/7DEz60AH2UzWbzvFgmk1HfhfX0n/7Tf/pD/+k/ /aH/9J/+eFj//wF3sb9cFNsEWgAAAABJRU5ErkJggg== "
       preserveAspectRatio="none"
       height="46.952278"
       width="115.09376" />
    <text
       xml:space="preserve"
       style="font-style:normal;font-weight:normal;font-size:10.58333302px;line-height:1.25;font-family:sans-serif;letter-spacing:0px;word-spacing:0px;fill:#000000;fill-opacity:1;stroke:none;stroke-width:0.26458332"
       x="-76.915825"
       y="50.419125"
       id="text1501"><tspan
         sodipodi:role="line"
         id="tspan1499"
         x="-76.915825"
         y="50.419125"
         style="stroke-width:0.26458332">DESIGN</tspan></text>
    <text
       xml:space="preserve"
       style="font-style:normal;font-weight:normal;font-size:10.58333302px;line-height:1.25;font-family:sans-serif;letter-spacing:0px;word-spacing:0px;fill:#000000;fill-opacity:1;stroke:none;stroke-width:0.26458332"
       x="-76.915825"
       y="117.4884"
       id="text1505"><tspan
         sodipodi:role="line"
         id="tspan1503"
         x="-76.915825"
         y="117.4884"
         style="stroke-width:0.26458332">BUILD</tspan></text>
    <text
       xml:space="preserve"
       style="font-style:normal;font-weight:normal;font-size:10.58333302px;line-height:1.25;font-family:sans-serif;letter-spacing:0px;word-spacing:0px;fill:#000000;fill-opacity:1;stroke:none;stroke-width:0.26458332"
       x="-76.915825"
       y="220.00975"
       id="text1509"><tspan
         sodipodi:role="line"
         id="tspan1507"
         x="-76.915825"
         y="220.00975"
         style="stroke-width:0.26458332">DEPLOY</tspan></text>
    <g
       id="g1560"
       transform="translate(9.0714285,-1.1339283)">
      <text
         id="text1513"
         y="118.66611"
         x="70.393951"
         style="font-style:normal;font-weight:normal;font-size:10.58333302px;line-height:1.25;font-family:sans-serif;letter-spacing:0px;word-spacing:0px;fill:#000000;fill-opacity:1;stroke:none;stroke-width:0.26458332"
         xml:space="preserve"><tspan
           style="font-size:7.05555534px;stroke-width:0.26458332"
           y="118.66611"
           x="70.393951"
           id="tspan1511"
           sodipodi:role="line">Rhei Tools</tspan></text>
      <rect
         ry="2.445631"
         rx="2.445631"
         y="101.86167"
         x="59.698406"
         height="28.348215"
         width="56.69643"
         id="rect1545"
         style="fill:none;fill-opacity:1;stroke:#000000;stroke-width:0.5;stroke-miterlimit:4;stroke-dasharray:none;stroke-opacity:1" />
    </g>
    <g
       id="g1566"
       transform="translate(-3.6480765,43.268826)">
      <rect
         ry="2.445631"
         rx="2.445631"
         y="157.0462"
         x="-1.1557565"
         height="28.348215"
         width="55.184521"
         id="rect1547"
         style="fill:#ffa600;fill-opacity:1;stroke:#000000;stroke-width:0.5;stroke-miterlimit:4;stroke-dasharray:none;stroke-opacity:1" />
      <text
         id="text1517"
         y="166.5522"
         x="26.438227"
         style="font-style:normal;font-weight:normal;font-size:10.58333302px;line-height:1.25;font-family:sans-serif;letter-spacing:0px;word-spacing:0px;fill:#000000;fill-opacity:1;stroke:none;stroke-width:0.26458332"
         xml:space="preserve"><tspan
           style="font-size:7.05555534px;text-align:center;text-anchor:middle;stroke-width:0.26458332"
           y="166.5522"
           x="26.438227"
           id="tspan1515"
           sodipodi:role="line">standalone</tspan><tspan
           id="tspan1519"
           style="font-size:7.05555534px;text-align:center;text-anchor:middle;stroke-width:0.26458332"
           y="179.78137"
           x="26.438227"
           sodipodi:role="line">service / app</tspan></text>
    </g>
    <g
       id="g1637"
       transform="translate(14.698897,-43.818363)">
      <rect
         ry="2.445631"
         rx="2.445631"
         y="202.02538"
         x="52.138882"
         height="25.702381"
         width="60.854164"
         id="rect1549"
         style="fill:none;fill-opacity:1;stroke:#000000;stroke-width:0.5;stroke-miterlimit:4;stroke-dasharray:none;stroke-opacity:1" />
      <text
         id="text1529"
         y="210.20847"
         x="82.476387"
         style="font-style:normal;font-weight:normal;font-size:10.58333302px;line-height:1.25;font-family:sans-serif;letter-spacing:0px;word-spacing:0px;fill:#000000;fill-opacity:1;stroke:none;stroke-width:0.26458332"
         xml:space="preserve"><tspan
           style="font-size:7.05555534px;text-align:center;text-anchor:middle;stroke-width:0.26458332"
           y="210.20847"
           x="82.476387"
           id="tspan1527"
           sodipodi:role="line">generated</tspan><tspan
           id="tspan1531"
           style="font-size:7.05555534px;text-align:center;text-anchor:middle;stroke-width:0.26458332"
           y="223.43764"
           x="82.476387"
           sodipodi:role="line">code / binary</tspan></text>
    </g>
    <g
       id="g1631"
       transform="translate(15.928346,17.380184)">
      <rect
         ry="2.4454088"
         rx="2.4919543"
         y="227.72775"
         x="52.141628"
         height="30.235346"
         width="60.85141"
         id="rect1551"
         style="fill:none;fill-opacity:1;stroke:#000000;stroke-width:0.50469017;stroke-miterlimit:4;stroke-dasharray:none;stroke-opacity:1" />
      <text
         id="text1535"
         y="238.17732"
         x="82.782654"
         style="font-style:normal;font-weight:normal;font-size:10.58333302px;line-height:1.25;font-family:sans-serif;letter-spacing:0px;word-spacing:0px;fill:#000000;fill-opacity:1;stroke:none;stroke-width:0.26458332"
         xml:space="preserve"><tspan
           style="font-size:7.05555534px;text-align:center;text-anchor:middle;stroke-width:0.26458332"
           y="238.17732"
           x="82.782654"
           id="tspan1533"
           sodipodi:role="line">your existing</tspan><tspan
           id="tspan1537"
           style="font-size:7.05555534px;text-align:center;text-anchor:middle;stroke-width:0.26458332"
           y="251.40649"
           x="82.782654"
           sodipodi:role="line">app code</tspan></text>
    </g>
    <g
       id="g1584"
       transform="translate(-57.245114,3.5813263)">
      <rect
         ry="2.445631"
         rx="2.445631"
         y="196.7337"
         x="203.32936"
         height="28.348215"
         width="74.839287"
         id="rect1553"
         style="fill:#ffa600;fill-opacity:1;stroke:#000000;stroke-width:0.5;stroke-miterlimit:4;stroke-dasharray:none;stroke-opacity:1" />
      <text
         id="text1523"
         y="206.92355"
         x="240.43205"
         style="font-style:normal;font-weight:normal;font-size:10.58333302px;line-height:1.25;font-family:sans-serif;letter-spacing:0px;word-spacing:0px;fill:#000000;fill-opacity:1;stroke:none;stroke-width:0.26458332"
         xml:space="preserve"><tspan
           style="font-size:7.05555534px;text-align:center;text-anchor:middle;stroke-width:0.26458332"
           y="206.92355"
           x="240.43205"
           id="tspan1521"
           sodipodi:role="line">micro-controller</tspan><tspan
           id="tspan1525"
           style="font-size:7.05555534px;text-align:center;text-anchor:middle;stroke-width:0.26458332"
           y="220.15273"
           x="240.43205"
           sodipodi:role="line">based IoT</tspan></text>
    </g>
    <g
       id="g1590"
       transform="translate(-9.2219986,-38.90507)">
      <rect
         ry="2.445631"
         rx="2.445631"
         y="239.03111"
         x="74.721733"
         height="28.726189"
         width="65.389877"
         id="rect1555"
         style="fill:#ffa600;fill-opacity:1;stroke:#000000;stroke-width:0.5;stroke-miterlimit:4;stroke-dasharray:none;stroke-opacity:1" />
      <text
         id="text1541"
         y="248.70543"
         x="107.40978"
         style="font-style:normal;font-weight:normal;font-size:10.58333302px;line-height:1.25;font-family:sans-serif;letter-spacing:0px;word-spacing:0px;fill:#000000;fill-opacity:1;stroke:none;stroke-width:0.26458332"
         xml:space="preserve"><tspan
           style="font-size:7.05555534px;text-align:center;text-anchor:middle;stroke-width:0.26458332"
           y="248.70543"
           x="107.40978"
           id="tspan1539"
           sodipodi:role="line">your app</tspan><tspan
           id="tspan1543"
           style="font-size:7.05555534px;text-align:center;text-anchor:middle;stroke-width:0.26458332"
           y="261.9346"
           x="107.40978"
           sodipodi:role="line">executable</tspan></text>
    </g>
    <text
       xml:space="preserve"
       style="font-style:normal;font-weight:normal;font-size:10.58333302px;line-height:1.25;font-family:sans-serif;letter-spacing:0px;word-spacing:0px;fill:#000000;fill-opacity:1;stroke:none;stroke-width:0.26458332"
       x="-5.3902693"
       y="71.23011"
       id="text1513-6"><tspan
         sodipodi:role="line"
         id="tspan1511-7"
         x="-5.3902693"
         y="71.23011"
         style="font-size:7.05555534px;stroke-width:0.26458332">rdyFlow GUI</tspan></text>
    <path
       style="fill:none;stroke:#000000;stroke-width:0.26499999;stroke-linecap:butt;stroke-linejoin:miter;stroke-miterlimit:4;stroke-dasharray:none;stroke-opacity:1;marker-end:url(#Arrow1Lend)"
       d="M 78.797727,128.80353 20.210069,200.18636"
       id="path1639"
       inkscape:connector-curvature="0"
       sodipodi:nodetypes="cc" />
    <path
       style="fill:none;stroke:#000000;stroke-width:0.26458332px;stroke-linecap:butt;stroke-linejoin:miter;stroke-opacity:1;marker-end:url(#marker1911)"
       d="m 109.80099,128.80353 59.05274,70.48373"
       id="path1907"
       inkscape:connector-curvature="0"
       sodipodi:nodetypes="cc" />
    <path
       style="fill:none;stroke:#000000;stroke-width:0.26458332px;stroke-linecap:butt;stroke-linejoin:miter;stroke-opacity:1;marker-end:url(#marker1917)"
       d="m 94.032089,129.0708 -0.143131,28.81138"
       id="path1913"
       inkscape:connector-curvature="0"
       sodipodi:nodetypes="cc" />
    <path
       style="fill:none;stroke:#000000;stroke-width:0.26458332px;stroke-linecap:butt;stroke-linejoin:miter;stroke-opacity:1;marker-end:url(#marker1923)"
       d="m 98.018122,244.97845 -0.4104,-16.16982"
       id="path1919"
       inkscape:connector-curvature="0"
       sodipodi:nodetypes="cc" />
    <path
       style="fill:none;stroke:#000000;stroke-width:0.26458332px;stroke-linecap:butt;stroke-linejoin:miter;stroke-opacity:1;marker-end:url(#marker1929)"
       d="m 96.093124,184.09836 0.04586,16.43708"
       id="path1925"
       inkscape:connector-curvature="0"
       sodipodi:nodetypes="cc" />
    <path
       style="fill:none;stroke:#000000;stroke-width:0.26458332px;stroke-linecap:butt;stroke-linejoin:miter;stroke-opacity:1;marker-end:url(#marker1935)"
       d="m 95.981257,73.030346 -0.34555,27.175344"
       id="path1931"
       inkscape:connector-curvature="0"
       sodipodi:nodetypes="cc" />
    <rect
       style="fill:none;fill-opacity:1;stroke:#000000;stroke-width:0.2235254;stroke-miterlimit:4;stroke-dasharray:2.68230487, 2.68230487;stroke-dashoffset:0;stroke-opacity:1"
       id="rect1937"
       width="322.452"
       height="49.216042"
       x="-86.754501"
       y="90.825371"
       rx="2.2489135"
       ry="1.8922181" />
    <rect
       style="fill:none;fill-opacity:1;stroke:#000000;stroke-width:0.2235254;stroke-miterlimit:4;stroke-dasharray:2.6823049, 2.6823049;stroke-dashoffset:0;stroke-opacity:1"
       id="rect1937-3"
       width="322.452"
       height="49.216042"
       x="-86.754501"
       y="190.25629"
       rx="2.2489138"
       ry="1.8922181" />
    <rect
       style="fill:none;fill-opacity:1;stroke:#000000;stroke-width:0.26072872;stroke-miterlimit:4;stroke-dasharray:3.1287447, 3.1287447;stroke-dashoffset:0;stroke-opacity:1"
       id="rect1937-3-5"
       width="322.46689"
       height="66.959251"
       x="-86.761948"
       y="15.989117"
       rx="2.2490177"
       ry="2.5743945" />
    <g
       id="g1999">
      <text
         id="text1513-2"
         y="37.354984"
         x="197.17401"
         style="font-style:normal;font-weight:normal;font-size:10.58333302px;line-height:1.25;font-family:sans-serif;letter-spacing:0px;word-spacing:0px;fill:#000000;fill-opacity:1;stroke:none;stroke-width:0.26458332"
         xml:space="preserve"><tspan
           style="font-size:7.05555534px;text-align:center;text-anchor:middle;stroke-width:0.26458332"
           y="37.354984"
           x="197.17401"
           id="tspan1511-9"
           sodipodi:role="line">Components</tspan></text>
      <rect
         ry="2.445631"
         rx="2.445631"
         y="20.550547"
         x="168.84991"
         height="28.348215"
         width="56.69643"
         id="rect1545-1"
         style="fill:none;fill-opacity:1;stroke:#000000;stroke-width:0.5;stroke-miterlimit:4;stroke-dasharray:none;stroke-opacity:1" />
    </g>
    <g
       transform="translate(0,28.348215)"
       id="g1999-2">
      <text
         id="text1513-2-7"
         y="37.354984"
         x="197.17401"
         style="font-style:normal;font-weight:normal;font-size:10.58333302px;line-height:1.25;font-family:sans-serif;letter-spacing:0px;word-spacing:0px;fill:#000000;fill-opacity:1;stroke:none;stroke-width:0.26458332"
         xml:space="preserve"><tspan
           style="font-size:7.05555534px;text-align:center;text-anchor:middle;stroke-width:0.26458332"
           y="37.354984"
           x="197.17401"
           id="tspan1511-9-0"
           sodipodi:role="line">NFIT</tspan></text>
      <rect
         ry="2.445631"
         rx="2.445631"
         y="20.550547"
         x="168.84991"
         height="28.348215"
         width="56.69643"
         id="rect1545-1-9"
         style="fill:none;fill-opacity:1;stroke:#000000;stroke-width:0.5;stroke-miterlimit:4;stroke-dasharray:none;stroke-opacity:1" />
    </g>
    <path
       style="fill:none;stroke:#000000;stroke-width:0.26458332px;stroke-linecap:butt;stroke-linejoin:miter;stroke-opacity:1;marker-end:url(#marker1935-3)"
       d="M 168.86304,35.254293 156.83591,34.185217"
       id="path1931-0"
       inkscape:connector-curvature="0"
       sodipodi:nodetypes="cc" />
    <path
       style="fill:none;stroke:#000000;stroke-width:0.26458332px;stroke-linecap:butt;stroke-linejoin:miter;stroke-opacity:1;marker-end:url(#marker1935-3-6)"
       d="m 168.5602,60.933693 -12.21611,0.348334"
       id="path1931-0-6"
       inkscape:connector-curvature="0"
       sodipodi:nodetypes="cc" />
  </g>
</svg>
